<svg xmlns="http://www.w3.org/2000/svg" width="86.911" height="33.869" viewBox="0 0 86.911 33.869">
  <g id="Group_378" data-name="Group 378" transform="translate(-180.145 -375.746)">
    <g id="Group_377" data-name="Group 377" transform="translate(180.145 375.746)">
      <path id="Path_883" data-name="Path 883" d="M189.751,400.636l-9.606-5.03,1.945-3.713a3.042,3.042,0,0,1,1.849-1.711,2.936,2.936,0,0,1,2.109.351,2.83,2.83,0,0,1,1.038.892,1.705,1.705,0,0,1,.34,1.17,2.675,2.675,0,0,1,1.263-1.008,2.709,2.709,0,0,1,2.1.271,2.936,2.936,0,0,1,1.516,1.693,4.055,4.055,0,0,1-.457,3.08Zm-4.515-5.537.242-.461a1.489,1.489,0,0,0,.2-1.108,1.054,1.054,0,0,0-.514-.562,1.118,1.118,0,0,0-.769-.109,1.5,1.5,0,0,0-.785.8l-.242.46Zm3.874,2.027.294-.561a2.355,2.355,0,0,0,.418-1.745,1.047,1.047,0,0,0-.514-.525,1.1,1.1,0,0,0-.821-.117c-.46.143-.8.756-1.123,1.375l-.271.517Z" transform="translate(-180.145 -366.767)" fill="#d6dc4a"/>
      <path id="Path_884" data-name="Path 884" d="M185.912,387.5l4.64,4.433a2.2,2.2,0,0,0,1.591.757,2,2,0,0,0,1.853-1.87,2.367,2.367,0,0,0-.983-1.815l-4.463-4.264,1.94-2.031,4.5,4.3a4.394,4.394,0,0,1,1.695,3.305,4.668,4.668,0,0,1-1.493,3.515,4.835,4.835,0,0,1-3.419,1.7,5.053,5.053,0,0,1-3.3-1.693l-4.5-4.3Z" transform="translate(-177.753 -371.392)" fill="#d6dc4a"/>
      <path id="Path_885" data-name="Path 885" d="M195.763,386.391l-6.221-2.9,2.9-1.693,3.257,1.524.21-3.546,2.946-1.716-.653,6.907,2.616,4.49-2.443,1.422Z" transform="translate(-174.271 -374.299)" fill="#d6dc4a"/>
      <path id="Path_886" data-name="Path 886" d="M204.542,378.687l1.682,8.281-2.755.561-1.684-8.283-2.261.46-.476-2.342,7.279-1.479.476,2.342Z" transform="translate(-168.328 -375.659)" fill="#d6dc4a"/>
      <path id="Path_887" data-name="Path 887" d="M207.951,375.746l.392,10.836-2.811.1-.392-10.836Z" transform="translate(-164.521 -375.746)" fill="#d6dc4a"/>
      <path id="Path_888" data-name="Path 888" d="M215.858,387.135a6.684,6.684,0,0,1-2.488.164,5.9,5.9,0,0,1-3.9-2.234,5.686,5.686,0,0,1-1.029-4.146,5.807,5.807,0,0,1,2.222-3.705,5.743,5.743,0,0,1,4.3-1.055,6.712,6.712,0,0,1,2.421.925l-.5,3.325a3.019,3.019,0,0,0-2.246-1.541,2.741,2.741,0,0,0-2.035.414,3.024,3.024,0,0,0-1.264,2.057,2.993,2.993,0,0,0,.549,2.22,3.034,3.034,0,0,0,1.88,1.04,3.18,3.18,0,0,0,2.6-.757Z" transform="translate(-162.494 -375.53)" fill="#d6dc4a"/>
      <path id="Path_889" data-name="Path 889" d="M218.791,382.35l4.955-2.693,3.179,1.406-6.01,2.953,1.986,7.111-3.328-1.471-1.458-5.777-1.9,4.292-2.569-1.134,4.38-9.908,2.569,1.136Z" transform="translate(-159.202 -374.881)" fill="#d6dc4a"/>
      <path id="Path_890" data-name="Path 890" d="M229.631,386.543,227,384.482l-1.112,1.42,2.5,1.953-1.474,1.882-2.5-1.955-1.152,1.472,2.638,2.065-1.474,1.88-4.851-3.8,6.682-8.54,4.853,3.8Z" transform="translate(-155.5 -372.546)" fill="#d6dc4a"/>
      <path id="Path_891" data-name="Path 891" d="M232.046,389.887l-6.471,5.423-1.8-2.152,6.47-5.425-1.482-1.766,1.83-1.534,4.768,5.688-1.83,1.532Z" transform="translate(-152.874 -370.316)" fill="#d6dc4a"/>
      <path id="Path_892" data-name="Path 892" d="M229.033,393.271a3.8,3.8,0,0,0,.172,2.716,1.428,1.428,0,0,0,.835.791.97.97,0,0,0,.733-.072.838.838,0,0,0,.434-.574,3.938,3.938,0,0,0-.143-1.5l-.137-.754a3.512,3.512,0,0,1,.055-1.788,2.723,2.723,0,0,1,1.412-1.437,3.548,3.548,0,0,1,2.779-.331,3.821,3.821,0,0,1,2.194,1.987,7.629,7.629,0,0,1,.772,3.374l-2.464.023a2.871,2.871,0,0,0-.21-1.981,1.35,1.35,0,0,0-.717-.671.808.808,0,0,0-.647.026.733.733,0,0,0-.364.356,1.774,1.774,0,0,0,0,1.061l.167.884a4.14,4.14,0,0,1-.041,2.239,2.555,2.555,0,0,1-1.391,1.515,3.667,3.667,0,0,1-2.893.356,4.2,4.2,0,0,1-2.462-2.326,5.77,5.77,0,0,1-.668-2.053,7.545,7.545,0,0,1,0-1.854Z" transform="translate(-151.229 -366.727)" fill="#d6dc4a"/>
    </g>
  </g>
</svg>
