<svg xmlns="http://www.w3.org/2000/svg" width="138.436" height="138.195" viewBox="0 0 138.436 138.195">
  <g id="Group_463" data-name="Group 463" transform="translate(-0.147 -0.168)">
    <path id="Path_901" data-name="Path 901" d="M68.325,138.349c-.626,0-1.252-.014-1.863,0a29.4,29.4,0,0,1-4.13-.25q-2.858-.313-5.674-.834a70.014,70.014,0,0,1-12.433-3.518c-1.989-.765-3.936-1.669-5.855-2.587a64.738,64.738,0,0,1-8.775-5.2,67.593,67.593,0,0,1-5.368-4.172,74.821,74.821,0,0,1-5.855-5.646c-.946-1-1.836-2.058-2.712-3.129a62.963,62.963,0,0,1-4.2-5.771q-1.815-2.774-3.352-5.688A64.984,64.984,0,0,1,4.827,94.4a66.3,66.3,0,0,1-2.99-9.749c-.375-1.669-.709-3.352-.96-5.048-.139-.918-.236-1.85-.334-2.781C.391,75.449.335,74.073.238,72.71c-.125-1.863-.1-3.741-.056-5.6.028-1.126.083-2.267.195-3.393.111-1.279.25-2.573.417-3.838a62.536,62.536,0,0,1,1.418-7.329,68.865,68.865,0,0,1,3.8-11.028,72.657,72.657,0,0,1,4.52-8.622,63.334,63.334,0,0,1,4.144-5.966c1.266-1.613,2.6-3.157,3.991-4.659,1.516-1.627,3.129-3.157,4.8-4.631a70.9,70.9,0,0,1,8.664-6.564A65.931,65.931,0,0,1,43.738,5.1a69.875,69.875,0,0,1,8.956-2.865A68.7,68.7,0,0,1,59.828.854c.973-.139,1.947-.209,2.92-.32C64.32.367,65.891.27,67.476.256c.626,0,1.238-.111,1.863-.083,1.349.042,2.712.042,4.061.139a72.964,72.964,0,0,1,13.74,2.225,69.563,69.563,0,0,1,20.387,9.109,66.182,66.182,0,0,1,6.467,4.826,72.157,72.157,0,0,1,6.411,6.133,64.761,64.761,0,0,1,6.786,8.65,72.973,72.973,0,0,1,5.285,9.651,70.536,70.536,0,0,1,3.087,8.177c.654,2.1,1.168,4.242,1.627,6.4.375,1.808.668,3.63.89,5.465.139,1.168.236,2.35.334,3.518.111,1.307.083,2.628.139,3.936.07,1.585,0,3.157-.07,4.728-.07,1.669-.236,3.324-.445,4.979s-.459,3.31-.793,4.937a67.108,67.108,0,0,1-7.69,20.457,71.908,71.908,0,0,1-4.923,7.454c-1.182,1.558-2.434,3.059-3.741,4.52-1.488,1.655-3.059,3.226-4.687,4.756-.973.918-1.975,1.794-3,2.642-1.613,1.321-3.282,2.587-5.006,3.769a64.69,64.69,0,0,1-7.955,4.617,71.634,71.634,0,0,1-14.463,5.229c-2.489.6-5.006,1.071-7.537,1.446-.654.1-1.321.139-1.989.195-1,.083-2,.07-3,.139-.82.056-1.641.1-2.461.1H68.38ZM69.27,2.717c-2.281-.042-4.214.014-6.147.125a2.7,2.7,0,0,0-.334.028c-1.989.25-3.963.542-5.924.918A62.816,62.816,0,0,0,48.73,5.86a66.393,66.393,0,0,0-10.541,4.506,67.848,67.848,0,0,0-7.065,4.3,69.6,69.6,0,0,0-7.565,6.119,63.981,63.981,0,0,0-5.09,5.368,61.928,61.928,0,0,0-5.34,7.245A70.866,70.866,0,0,0,7.386,44.535,63.564,63.564,0,0,0,5.23,50.709,60.242,60.242,0,0,0,3.255,60.1c-.125.987-.25,1.989-.32,2.99-.07.932-.181,1.863-.209,2.8-.056,2.142-.07,4.269-.014,6.411.014.473,0,.932.042,1.4.056.82.153,1.641.209,2.461.1,1.307.264,2.614.473,3.908a67.254,67.254,0,0,0,6.786,20.22,73.49,73.49,0,0,0,5.8,9.192,50.393,50.393,0,0,0,4.047,4.867,72.725,72.725,0,0,0,6.967,6.606,69.411,69.411,0,0,0,11.626,7.663,60.989,60.989,0,0,0,6.147,2.767,68.577,68.577,0,0,0,11.96,3.5c1.46.292,2.934.5,4.408.7a34.045,34.045,0,0,0,4.45.334c2.086.014,4.172.056,6.272-.07,1.418-.1,2.837-.056,4.269-.153,1.043-.07,2.086-.181,3.115-.348a73.165,73.165,0,0,0,8.274-1.822,75.761,75.761,0,0,0,8.427-2.976c1.544-.64,3.032-1.377,4.506-2.156A67.061,67.061,0,0,0,116.4,116.683c.6-.584,1.168-1.224,1.752-1.836a54.775,54.775,0,0,0,4.965-5.938A68.109,68.109,0,0,0,127.3,102.4c.973-1.724,1.864-3.491,2.712-5.285a64.928,64.928,0,0,0,2.587-6.369,60.992,60.992,0,0,0,1.752-6.091,59.135,59.135,0,0,0,1.571-10.472c.07-1.4.111-2.8.139-4.2.014-1.307.028-2.628-.07-3.936-.083-.932-.056-1.863-.125-2.8-.111-1.335-.278-2.656-.473-3.977a66.56,66.56,0,0,0-4.061-14.838,63.245,63.245,0,0,0-3.6-7.524,62.4,62.4,0,0,0-7-10.221c-1.1-1.266-2.225-2.475-3.379-3.685-.973-1.029-2.016-2-3.046-2.99a52.772,52.772,0,0,0-4.478-3.783A67.444,67.444,0,0,0,98.474,9.267a64.444,64.444,0,0,0-9.248-3.63,66.825,66.825,0,0,0-13.1-2.7c-1.266-.125-2.531-.1-3.8-.195C71.148,2.648,70.035,2.717,69.27,2.717Z" transform="translate(0 0)" fill="#383e42"/>
    <path id="Path_902" data-name="Path 902" d="M91.121,25.744c1.029,0,2.044-.028,3.073.014.932.028,1.863.139,2.8.209.515.042,1.015.111,1.53.153a56.337,56.337,0,0,1,6.258,1A66.124,66.124,0,0,1,116,30.542a63.541,63.541,0,0,1,11.153,5.841,69.892,69.892,0,0,1,6.926,5.215,65.2,65.2,0,0,1,5.006,4.8c1.46,1.558,2.865,3.157,4.172,4.853,1.168,1.516,2.253,3.087,3.3,4.7a65.052,65.052,0,0,1,3.671,6.508A64.1,64.1,0,0,1,154.6,73.986a67.432,67.432,0,0,1,1.683,8.094c.153,1.071.236,2.169.348,3.254.111,1.2.083,2.406.181,3.6.083,1.085.042,2.183.042,3.268,0,1.711-.1,3.421-.223,5.132a57.3,57.3,0,0,1-1.071,7.524,69.735,69.735,0,0,1-2.531,8.845,62.956,62.956,0,0,1-3.5,7.927,60.893,60.893,0,0,1-4.589,7.51c-.723,1.015-1.46,2.016-2.225,3-1.071,1.363-2.2,2.684-3.393,3.95-.737.779-1.46,1.558-2.225,2.309a67.808,67.808,0,0,1-9.276,7.51,65.457,65.457,0,0,1-10.722,5.813,68,68,0,0,1-9.54,3.2,69.158,69.158,0,0,1-7.843,1.544,17.594,17.594,0,0,1-2.253.195c-.556,0-1.113.083-1.669.1-.7.028-1.377-.014-2.072.042-1.78.139-3.56.083-5.34.111a23.8,23.8,0,0,1-2.99-.167c-.987-.111-1.989-.223-2.976-.362a61.46,61.46,0,0,1-6.161-1.113,72.966,72.966,0,0,1-7.231-2.128,59.89,59.89,0,0,1-9.012-4.005,67.627,67.627,0,0,1-8.261-5.285c-1.6-1.2-3.143-2.489-4.631-3.824s-2.948-2.781-4.311-4.269a58.459,58.459,0,0,1-4.283-5.187,70.429,70.429,0,0,1-4.965-7.746,63.978,63.978,0,0,1-3.81-8.233,66.751,66.751,0,0,1-2.8-9.526c-.278-1.321-.542-2.656-.723-4.005-.195-1.4-.348-2.823-.487-4.242-.1-1.043-.083-2.086-.195-3.129a13.324,13.324,0,0,1-.028-1.669V90.09c.014-1.335.111-2.67.209-3.991.07-.96.167-1.905.292-2.851.223-1.794.515-3.56.876-5.326a66.194,66.194,0,0,1,2.322-8.344c.64-1.822,1.377-3.616,2.169-5.382a61.569,61.569,0,0,1,3.032-5.869,65,65,0,0,1,4.77-7.079c.876-1.126,1.78-2.225,2.726-3.282,1.418-1.6,2.893-3.129,4.464-4.589a67.471,67.471,0,0,1,8.3-6.592A65.464,65.464,0,0,1,63.4,31.877a62.97,62.97,0,0,1,14.463-4.84q2.608-.542,5.257-.876c1.2-.153,2.392-.236,3.588-.334C88.187,25.716,89.647,25.758,91.121,25.744Zm.014,15.117h0c-.973,0-1.961.014-2.934,0a23.578,23.578,0,0,0-2.8.181c-1.279.153-2.545.362-3.81.612a51.027,51.027,0,0,0-12.613,4.228,54.615,54.615,0,0,0-5.048,2.851,48.333,48.333,0,0,0-6.286,4.742,52.034,52.034,0,0,0-4.2,4.2,49.771,49.771,0,0,0-9.971,16.744,53.168,53.168,0,0,0-2.211,8.511,34.847,34.847,0,0,0-.584,5.771c-.014,1.627-.014,3.254,0,4.867a35.994,35.994,0,0,0,.417,5.048,53.592,53.592,0,0,0,1.808,7.927,52.986,52.986,0,0,0,3.129,7.579,48.328,48.328,0,0,0,3.1,5.3,52.607,52.607,0,0,0,4.812,6.147,50.82,50.82,0,0,0,6.161,5.7,48.3,48.3,0,0,0,9.832,5.994,56.194,56.194,0,0,0,8.539,3.046,47.885,47.885,0,0,0,5.41,1.126,34.739,34.739,0,0,0,3.977.417,58.127,58.127,0,0,0,8.664-.209c1.766-.209,3.518-.473,5.271-.848a49.859,49.859,0,0,0,10.666-3.574,48.7,48.7,0,0,0,10.333-6.439c1.21-.987,2.392-2,3.5-3.073a47.6,47.6,0,0,0,4.561-5.048,49.373,49.373,0,0,0,5.187-7.982,51.477,51.477,0,0,0,4.116-10.764,52.576,52.576,0,0,0,1.1-5.493,41.631,41.631,0,0,0,.417-5.577c.042-2.253-.042-4.492-.222-6.731-.07-.82-.139-1.641-.278-2.448A51.4,51.4,0,0,0,138.251,72.8a48.684,48.684,0,0,0-2.92-6.147,47.3,47.3,0,0,0-3.824-5.785c-.946-1.238-1.961-2.42-3-3.574a56.7,56.7,0,0,0-4.52-4.436,51.408,51.408,0,0,0-16.855-9.526,47.482,47.482,0,0,0-6.773-1.752,36.937,36.937,0,0,0-6.425-.709C93.012,40.86,92.08,40.86,91.135,40.86Zm-60.3,38.2V79.1c-.153,0-.306.014-.459,0a4.243,4.243,0,0,0-.932.1.147.147,0,0,0-.083.25c.111.111.236.209.348.306.417.334.834.654,1.266.987a.665.665,0,0,1,.25.821c-.153.487-.306.973-.445,1.46a1.3,1.3,0,0,0-.1.515c.014.083.111.167.195.125.111-.056.236-.125.348-.195.459-.306.918-.626,1.377-.946a.672.672,0,0,1,.862,0c.445.306.876.612,1.335.89.181.111.348.389.556.223.153-.125-.028-.375-.056-.556-.042-.223-.125-.431-.181-.64-.083-.278-.167-.556-.264-.82a.742.742,0,0,1,.292-.932c.4-.278.779-.6,1.168-.89a1.75,1.75,0,0,0,.445-.4.116.116,0,0,0-.042-.167.812.812,0,0,0-.25-.056c-.626-.042-1.238-.083-1.863-.1a.642.642,0,0,1-.7-.5c-.056-.167-.125-.334-.181-.5-.153-.445-.306-.876-.473-1.321-.042-.1-.083-.223-.223-.223-.1,0-.139.1-.167.181-.056.139-.1.292-.153.445-.153.417-.306.834-.445,1.266a.768.768,0,0,1-.876.64C31.2,79.048,31.016,79.062,30.835,79.062Zm114.841.125v.042c-.153,0-.306.014-.459,0a5.275,5.275,0,0,0-.932.083.128.128,0,0,0-.139.125.279.279,0,0,0,.056.181c.167.153.348.278.515.417.348.278.7.556,1.057.82a.685.685,0,0,1,.25.876c-.153.445-.278.89-.4,1.335a4.375,4.375,0,0,0-.125.584.134.134,0,0,0,.181.139,2.8,2.8,0,0,0,.348-.195c.459-.306.918-.626,1.377-.946a.69.69,0,0,1,.862-.014c.459.32.918.626,1.391.932a3.834,3.834,0,0,0,.4.236.135.135,0,0,0,.125-.014c.028-.028.056-.083.042-.111-.1-.362-.181-.737-.292-1.1-.083-.292-.181-.6-.278-.89a.723.723,0,0,1,.278-.876c.375-.278.737-.57,1.113-.848.153-.125.32-.25.459-.375a.2.2,0,0,0,.056-.167.2.2,0,0,0-.153-.1c-.668-.042-1.335-.1-1.989-.111a.669.669,0,0,1-.709-.473c-.181-.528-.375-1.043-.57-1.571-.056-.139-.111-.292-.167-.431a.13.13,0,0,0-.223,0c-.083.181-.153.362-.223.556-.181.487-.348.96-.515,1.446a.628.628,0,0,1-.64.473A6.049,6.049,0,0,0,145.677,79.187ZM113.33,39.442a4.209,4.209,0,0,1,0,1.321c0,.153-.014.306,0,.459a.215.215,0,0,0,.334.181,2.375,2.375,0,0,0,.362-.292c.167-.153.306-.32.473-.473.765-.64,1.53-1.293,2.239-1.989a1.984,1.984,0,0,1,.654-.459c.083-.028.195.056.167.139a1.682,1.682,0,0,1-.07.25,27.148,27.148,0,0,1-1.293,3,.477.477,0,0,1-.6.292,1.4,1.4,0,0,0-.334-.056.193.193,0,0,0-.195.153.241.241,0,0,0,.07.25.355.355,0,0,0,.167.111c.528.223,1.057.459,1.6.668a.568.568,0,0,0,.264.014c.125-.014.223-.209.139-.306a1.2,1.2,0,0,0-.181-.195c-.459-.417-.487-.515-.236-1.085.181-.4.362-.807.542-1.224.25-.6.5-1.2.751-1.78.167-.375.4-.64.876-.5a.193.193,0,0,0,.125,0,.239.239,0,0,0,.195-.236.244.244,0,0,0-.139-.278c-.278-.139-.556-.278-.848-.389a.478.478,0,0,0-.5.1c-.083.07-.167.139-.25.223-.668.612-1.349,1.224-2.016,1.836-.334.292-.668.6-.987.89a1.037,1.037,0,0,1-.445.292.244.244,0,0,1-.278-.125.452.452,0,0,1-.056-.195c-.028-.417-.056-.848-.056-1.266.014-1.14-.209-2.253-.139-3.393a.82.82,0,0,0-.028-.195.369.369,0,0,0-.167-.278,4.514,4.514,0,0,0-1.071-.528.226.226,0,0,0-.236.083.232.232,0,0,0,0,.306,3.685,3.685,0,0,0,.362.292c.32.25.348.348.181.737-.083.181-.181.362-.264.542-.459.89-.89,1.794-1.266,2.712-.236.6-.25.6-.946.487-.236-.042-.389.028-.431.195-.042.139.028.25.264.32a10.675,10.675,0,0,1,1.585.681.966.966,0,0,0,.181.07.237.237,0,0,0,.25-.042.293.293,0,0,0,.014-.362,2.82,2.82,0,0,0-.32-.25.421.421,0,0,1-.153-.528,1.858,1.858,0,0,1,.1-.25c.348-.848.7-1.683,1.043-2.531a.773.773,0,0,1,.125-.236.22.22,0,0,1,.167-.07.209.209,0,0,1,.125.139c.042.417.083.834.083,1.252A5.6,5.6,0,0,1,113.33,39.442Zm-56.767,5.7a.578.578,0,0,1,.014-.181.2.2,0,0,1,.334-.153,3.816,3.816,0,0,1,.5.445c.64.681,1.4,1.238,2.086,1.863a.3.3,0,0,0,.111.07.266.266,0,0,0,.25,0,.215.215,0,0,0,.111-.223c-.042-.167-.083-.348-.139-.515-.153-.445-.334-.876-.487-1.321-.348-1.029-.681-2.072-1.015-3.1a.793.793,0,0,1,.083-.765,1.709,1.709,0,0,0,.195-.348.31.31,0,0,0-.042-.181.2.2,0,0,0-.236-.083.773.773,0,0,0-.236.125c-.32.236-.64.473-.96.723a1.2,1.2,0,0,0-.195.181.21.21,0,0,0-.028.25.2.2,0,0,0,.209.125c.111-.028.209-.07.32-.1a.23.23,0,0,1,.306.181c.223.862.6,1.669.862,2.517.07.236.181.459.25.681a.265.265,0,0,1-.028.181c-.07.083-.153.056-.236.014a1.3,1.3,0,0,1-.264-.195c-.681-.6-1.363-1.21-2.044-1.808a.719.719,0,0,1-.278-.584.442.442,0,0,0-.028-.195.213.213,0,0,0-.306-.153,2.534,2.534,0,0,0-.848.64.227.227,0,0,0,.167.348c.042,0,.1.014.125,0,.389-.139.57.056.7.389.1.264.236.528.32.807.167.528.292,1.071.445,1.6.056.209.139.417.195.64a.219.219,0,0,1-.07.236.21.21,0,0,1-.25-.028,12.2,12.2,0,0,1-1.252-.987,8.274,8.274,0,0,0-1.126-.946c-.083-.07-.181-.125-.264-.195a.322.322,0,0,1-.07-.473,2.942,2.942,0,0,0,.167-.278c.056-.111-.111-.278-.236-.25a.353.353,0,0,0-.181.07c-.4.278-.793.57-1.182.862a.729.729,0,0,0-.139.153.251.251,0,0,0-.014.306.264.264,0,0,0,.292.1,2.822,2.822,0,0,0,.362-.153.53.53,0,0,1,.57.056l.209.167c.793.612,1.516,1.307,2.35,1.863a3.067,3.067,0,0,1,.445.4c.292.264.6.528.89.793a.747.747,0,0,0,.223.139c.111.056.306-.07.278-.195a1.151,1.151,0,0,0-.1-.375,15.254,15.254,0,0,1-.751-1.919C56.8,45.95,56.674,45.519,56.563,45.144Zm85.165,23.349a2.5,2.5,0,0,1,.083-.306,16.406,16.406,0,0,0,.584-1.766c.139-.473.306-.932.487-1.377.139-.362.25-.431.6-.306.4.139.779.32,1.182.459a2.563,2.563,0,0,1,1.321.862c.014.014.028.042.056.042a.4.4,0,0,0,.181.014.165.165,0,0,0,.125-.209,1.677,1.677,0,0,0-.111-.375c-.167-.348-.334-.681-.5-1.015-.139-.278-.25-.375-.362-.32-.181.1-.111.264-.139.417-.028.209-.125.278-.306.209-.292-.111-.57-.236-.862-.348l-1.544-.626a1.353,1.353,0,0,1-.556-.348.219.219,0,0,1-.014-.306,1.053,1.053,0,0,1,.306-.25c.306-.181.626-.348.932-.515.584-.32.584-.32.973.209.153.209.32.278.431.181.153-.139.07-.278,0-.417a14.458,14.458,0,0,1-.821-1.6.3.3,0,0,0-.07-.111.244.244,0,0,0-.292-.083.252.252,0,0,0-.139.278,1.4,1.4,0,0,0,.1.32c.125.264,0,.431-.209.556-.431.236-.848.487-1.293.7-.626.306-1.238.612-1.822.973a3,3,0,0,1-.473.236.381.381,0,0,1-.528-.125c-.056-.07-.1-.153-.153-.223-.153-.195-.32-.25-.445-.139-.153.139-.056.292.028.431a11.769,11.769,0,0,1,.987,1.961,1.576,1.576,0,0,0,.181.278c.07.083.236.028.278-.07a.633.633,0,0,0-.083-.57c-.362-.654-.236-.765.4-1.126a.778.778,0,0,0,.111-.07,1.154,1.154,0,0,1,1.474,0c.139.111.32.167.459.264a.349.349,0,0,1,.153.348,1.4,1.4,0,0,1-.1.32c-.25.709-.515,1.418-.765,2.128-.223.612-.223.612-.7.125l-.042-.042a.209.209,0,0,0-.25-.042.227.227,0,0,0-.139.264.933.933,0,0,0,.1.25,8.889,8.889,0,0,1,.668,1.307c.014.042.042.083.056.125.111.181.25.264.375.195a.286.286,0,0,0,.139-.348A1.593,1.593,0,0,0,141.727,68.493ZM80.733,35.645a3.035,3.035,0,0,0-1.21-2.614,2.054,2.054,0,0,0-1.474-.528,8.506,8.506,0,0,0-1.446.25c-.6.153-1.2.348-1.808.445a1.2,1.2,0,0,0-.32.083.3.3,0,0,0-.236.348c.028.153.139.209.292.223a2.679,2.679,0,0,0,.334.014.459.459,0,0,1,.431.348c.028.083.042.167.07.264.181.751.362,1.516.542,2.267.1.389.181.779.264,1.168.083.417.014.515-.348.668a2.831,2.831,0,0,0-.306.125,1.261,1.261,0,0,0-.264.181.251.251,0,0,0-.028.306.215.215,0,0,0,.223.111,2.962,2.962,0,0,0,.375-.1,8.579,8.579,0,0,1,1.863-.5c.375-.07.723-.195,1.1-.278A2.861,2.861,0,0,0,80.733,35.645Zm60.591,21.9a2.5,2.5,0,0,0-.542-1.516,13.763,13.763,0,0,1-1.349-1.891.911.911,0,0,0-.209-.25.208.208,0,0,0-.25-.014.215.215,0,0,0-.111.223.884.884,0,0,0,.083.25.522.522,0,0,1-.181.751c-1.015.82-2.072,1.613-3.157,2.336-.292.195-.376.195-.654-.028a3.743,3.743,0,0,0-.375-.278c-.042-.028-.125,0-.181.028a.133.133,0,0,0-.056.181,1.565,1.565,0,0,0,.167.292,15.517,15.517,0,0,1,1.029,1.474,1.319,1.319,0,0,0,.278.278.268.268,0,0,0,.181,0,.2.2,0,0,0,.125-.209.516.516,0,0,0-.056-.195c-.07-.139-.167-.264-.236-.4-.125-.223-.111-.334.083-.542a5.617,5.617,0,0,1,1.154-.9.326.326,0,0,1,.473.083,3.326,3.326,0,0,1,.5.793,1.356,1.356,0,0,1-.028,1.224c-.125.236-.236.473-.348.723-.139.32-.306.654-.417.987a1.148,1.148,0,0,0,.6,1.46.237.237,0,0,0,.25-.042.2.2,0,0,0,.056-.236,1.231,1.231,0,0,0-.111-.236,1.049,1.049,0,0,1-.056-1.085,2.87,2.87,0,0,1,.167-.362,5.444,5.444,0,0,0,.4-1.126c.153-.654.167-.654.821-.4.042.014.083.042.125.056A1.4,1.4,0,0,0,141.324,57.548Zm-32.75-17.926c.042,0,.125-.014.223-.014a.281.281,0,0,0,.25-.195.229.229,0,0,0-.153-.264,1.857,1.857,0,0,0-.25-.1.947.947,0,0,1-.626-.723,8.2,8.2,0,0,0-.64-1.891c-.111-.209-.042-.348.181-.417a4.162,4.162,0,0,0,.445-.139,1.426,1.426,0,0,0,.515-2.392,2.591,2.591,0,0,0-1.126-.668,21.049,21.049,0,0,1-2.434-.681.406.406,0,0,0-.125-.028.22.22,0,0,0-.264.139.28.28,0,0,0,.07.306c.07.056.153.083.222.139.32.195.362.306.278.654-.139.6-.278,1.21-.445,1.808s-.389,1.14-.515,1.724c-.153.737-.306.7-.834.668-.222-.014-.362.1-.348.223.014.167.153.195.278.236.57.167,1.168.278,1.724.5a.912.912,0,0,0,.389.014.207.207,0,0,0,.181-.167.175.175,0,0,0-.1-.223c-.181-.083-.375-.153-.556-.223a.333.333,0,0,1-.236-.362,5.4,5.4,0,0,1,.348-1.488c.1-.264.25-.32.528-.25a3.889,3.889,0,0,1,.57.181,1.36,1.36,0,0,1,.932,1.113,16.087,16.087,0,0,0,.431,1.752A1.025,1.025,0,0,0,108.574,39.623Zm23,12.252a.527.527,0,0,1,.431.139,12.283,12.283,0,0,1,1.377,1.446.593.593,0,0,1,.111.5,2.194,2.194,0,0,1-.348.779.345.345,0,0,1-.528.07c-.1-.083-.195-.195-.292-.264a.253.253,0,0,0-.306.028.281.281,0,0,0-.07.362.669.669,0,0,0,.125.153,7.2,7.2,0,0,1,1.085,1.168,3.625,3.625,0,0,0,.32.334.219.219,0,0,0,.306-.014.272.272,0,0,0,.111-.292.774.774,0,0,0-.125-.236.648.648,0,0,1-.042-.751,8.1,8.1,0,0,0,.32-.807,14.162,14.162,0,0,1,.7-1.738c.32-.64.6-1.293.89-1.933a3.612,3.612,0,0,0,.181-.5.431.431,0,0,0-.431-.542,1.368,1.368,0,0,0-.584.111c-.375.153-.737.306-1.113.459-1.043.4-2.086.765-3.115,1.2-.431.181-.807.264-1.126-.153-.014-.014-.042-.028-.056-.042a.232.232,0,0,0-.306.014.294.294,0,0,0-.125.292.5.5,0,0,0,.153.292c.153.139.292.264.459.389a6.3,6.3,0,0,1,.751.848.217.217,0,0,0,.306.056.236.236,0,0,0,.111-.292c-.042-.153-.125-.278-.181-.431a.312.312,0,0,1,.139-.4A2.549,2.549,0,0,1,131.576,51.874ZM98.144,35.256c.528.083,1.113.167,1.711.264a.643.643,0,0,1,.528.459,3.183,3.183,0,0,1,.111.389c.083.515,0,.626-.515.668a.442.442,0,0,0-.195.028.255.255,0,0,0-.181.25.294.294,0,0,0,.153.278.224.224,0,0,0,.125.042,10.173,10.173,0,0,1,1.711.264.926.926,0,0,0,.389-.028.243.243,0,0,0,.181-.25.226.226,0,0,0-.111-.223.673.673,0,0,0-.25-.1.542.542,0,0,1-.4-.4c-.195-.82-.542-1.6-.723-2.42s-.389-1.641-.6-2.461a4.16,4.16,0,0,0-.139-.445.442.442,0,0,0-.723-.125,3.086,3.086,0,0,0-.473.723c-.32.584-.64,1.168-.973,1.752-.375.64-.779,1.238-1.126,1.891-.236.445-.473.793-1.071.681-.167-.028-.278.139-.25.32a.334.334,0,0,0,.362.32,7.168,7.168,0,0,1,1.641.209A.244.244,0,0,0,97.6,37.2a.3.3,0,0,0-.083-.362c-.111-.07-.236-.111-.362-.181-.167-.1-.236-.236-.167-.389a2.366,2.366,0,0,1,.57-.807A.621.621,0,0,1,98.144,35.256Zm31.485,13.17a1.456,1.456,0,0,0,.737-.139,1.722,1.722,0,0,0,.737-2.517,2.416,2.416,0,0,0-.389-.445c-.195-.181-.4-.348-.612-.515a22.222,22.222,0,0,1-2.239-1.877,1.726,1.726,0,0,0-.32-.236.208.208,0,0,0-.181.014.165.165,0,0,0-.056.236c.083.139.181.25.264.375a.586.586,0,0,1,.014.737c-.042.056-.07.111-.111.167-.612.793-1.224,1.571-1.85,2.364-.139.167-.292.334-.445.487a.481.481,0,0,1-.709.07c-.153-.083-.292-.195-.445-.278a.253.253,0,0,0-.306.028.259.259,0,0,0-.014.362,1.819,1.819,0,0,0,.334.32c.5.375.973.779,1.432,1.2a1.676,1.676,0,0,0,.362.278.278.278,0,0,0,.362-.056.249.249,0,0,0-.014-.362c-.167-.181-.348-.334-.528-.515a.352.352,0,0,1-.056-.487c.264-.362.542-.7.834-1.043a.3.3,0,0,1,.431-.042,2.134,2.134,0,0,1,.6.515,5.717,5.717,0,0,0,1.21,1.029A1.549,1.549,0,0,0,129.629,48.426Zm9.4,79.769a2.737,2.737,0,0,0-1.279-2.406,2.521,2.521,0,0,0-3.449.264c-.668.709-1.182,1.558-1.877,2.253-.181.181-.167.362-.042.473.167.139.278,0,.4-.083.4-.292.528-.292.876,0l2.587,2.211a.473.473,0,0,1,.1.751,1.943,1.943,0,0,0-.139.223c-.083.167-.25.348-.056.542.125.125.292.028.515-.278a15.482,15.482,0,0,1,1.321-1.669,4.955,4.955,0,0,0,.57-.737A2.431,2.431,0,0,0,139.029,128.194ZM33.422,110.686c-.014-.445-.014-.445.417-.626.723-.292,1.432-.584,2.156-.876.292-.111.584-.209.876-.306a2.159,2.159,0,0,1,.32-.07.176.176,0,0,1,.181.223,1.171,1.171,0,0,1-.153.292c-.445.528-.765,1.154-1.168,1.711-.584.807-1.154,1.627-1.738,2.448a1.573,1.573,0,0,0-.264.528.283.283,0,0,0,.292.348,1.656,1.656,0,0,0,.445-.139c1.2-.528,2.448-.946,3.671-1.391.459-.167.459-.167.793.209a.743.743,0,0,0,.181.181.19.19,0,0,0,.25,0,.3.3,0,0,0,.1-.167,1.184,1.184,0,0,0-.056-.32c-.139-.4-.278-.793-.431-1.2a1.233,1.233,0,0,0-.111-.236.182.182,0,0,0-.223-.111c-.1.014-.181.07-.181.167-.014.181-.014.348-.014.528a.393.393,0,0,1-.223.375,4.061,4.061,0,0,1-.431.195c-.737.292-1.488.584-2.239.876-.181.07-.362.209-.57.07-.125-.083-.07-.264.167-.584a11.359,11.359,0,0,0,.709-.96c.264-.445.542-.862.848-1.279l1-1.418a.762.762,0,0,0,.07-.82c-.125-.264-.223-.528-.334-.793-.056-.125-.125-.264-.278-.236s-.181.167-.181.306c0,.083.014.181.014.264a.409.409,0,0,1-.278.473,1.973,1.973,0,0,0-.25.111c-1.043.389-2.086.765-3.129,1.154a1.68,1.68,0,0,1-.25.07.386.386,0,0,1-.459-.181c-.083-.125-.153-.264-.25-.389a.166.166,0,0,0-.181-.028.209.209,0,0,0-.125.139.5.5,0,0,0,.07.375,6.067,6.067,0,0,1,.445,1.182c.042.153.083.306.278.334S33.436,110.964,33.422,110.686Zm6.7,12.266a3.023,3.023,0,0,0,2.962-2.253,2.035,2.035,0,0,0-.125-1.432,11.859,11.859,0,0,0-.612-1.182,8.923,8.923,0,0,1-.834-1.516.545.545,0,0,0-.236-.32.234.234,0,0,0-.25-.014.208.208,0,0,0-.139.209,2.709,2.709,0,0,0,.083.32c.1.389.07.5-.292.709-.89.542-1.794,1.085-2.7,1.6-.5.278-.681.459-1.154-.223-.167-.236-.306-.278-.431-.209-.153.083-.153.292.028.528a9.894,9.894,0,0,1,1.057,1.766,5.652,5.652,0,0,0,.89,1.321,1.343,1.343,0,0,0,.473.362A2.922,2.922,0,0,0,40.125,122.952Zm27.1-81.9a4.353,4.353,0,0,0-.056-.584,3.492,3.492,0,0,0-.236-.765,2.993,2.993,0,0,0-3.977-1.641,3.811,3.811,0,0,0-1.335.96,2.22,2.22,0,0,0-.654,1.488,4.065,4.065,0,0,0,.278,1.766,3.087,3.087,0,0,0,5.98-1.224ZM43.212,63.667a3.074,3.074,0,0,0,3.171-3.073A3.324,3.324,0,0,0,43.1,57.27,3.392,3.392,0,0,0,40,60.58,3.3,3.3,0,0,0,43.212,63.667ZM86.184,152.35v-.014c-.153,0-.306.014-.473,0-.4-.042-.793-.083-1.2-.139-.348-.056-.459-.209-.473-.542a6.973,6.973,0,0,1,.125-1.321.35.35,0,0,1,.362-.32,5.112,5.112,0,0,1,.793.083.358.358,0,0,1,.292.25.8.8,0,0,1,.056.195c.028.111.07.223.209.209s.153-.139.181-.25a5.709,5.709,0,0,0,.1-1.2.516.516,0,0,0-.056-.195.173.173,0,0,0-.278-.056,1.16,1.16,0,0,0-.111.167.536.536,0,0,1-.584.348c-.181-.014-.362-.014-.528-.042a.316.316,0,0,1-.292-.306,3.455,3.455,0,0,1,.111-1.252c.1-.32.25-.417.6-.389l.862.083c.4.042.793.083,1.2.139a1.071,1.071,0,0,1,.89.612,2.32,2.32,0,0,0,.223.334c.014.028.083.028.125.014s.083-.07.07-.1a8.131,8.131,0,0,0-.167-.987.462.462,0,0,0-.431-.362,1.684,1.684,0,0,0-.264-.014c-1.224-.083-2.434-.195-3.644-.362a4.3,4.3,0,0,0-.6-.028.216.216,0,0,0-.223.209.2.2,0,0,0,.125.209,3.957,3.957,0,0,0,.375.125.406.406,0,0,1,.278.417c0,.153-.028.306-.042.459a10.18,10.18,0,0,0-.139,1.46c.028.6-.139,1.2-.167,1.794-.014.334-.167.459-.515.5-.125.014-.264.014-.4.028-.181.028-.32.167-.292.292.028.167.181.195.306.195a24.311,24.311,0,0,1,2.461.125c.334.028.668.056.987.1l1.391.167a.38.38,0,0,0,.473-.278c.111-.431.209-.862.32-1.293.014-.028-.028-.1-.056-.111a.268.268,0,0,0-.181,0,.793.793,0,0,0-.195.181c-.153.195-.292.389-.431.584a.779.779,0,0,1-.807.348C86.462,152.35,86.323,152.364,86.184,152.35Zm65.626-50.926v-.139c-.014-.181-.125-.362-.25-.348-.167.014-.209.153-.25.278a1.042,1.042,0,0,1-.779.751,7.884,7.884,0,0,0-1.683.626c-.181.1-.334.014-.417-.195-.056-.139-.083-.306-.153-.445a1.281,1.281,0,0,0-2.142-.4,1.723,1.723,0,0,0-.25.306,2.776,2.776,0,0,0-.4.9,17.5,17.5,0,0,1-.5,2.211.671.671,0,0,0-.028.334.172.172,0,0,0,.167.181.23.23,0,0,0,.167-.07,1.792,1.792,0,0,0,.125-.223c.209-.375.264-.4.681-.292.278.07.556.139.848.195.918.167,1.808.473,2.7.723a.457.457,0,0,1,.362.417,2.583,2.583,0,0,0,.056.459.191.191,0,0,0,.139.111c.056,0,.111-.056.153-.111a.8.8,0,0,0,.07-.195c.153-.584.292-1.168.445-1.738a.939.939,0,0,0,.028-.195.216.216,0,0,0-.181-.236.205.205,0,0,0-.223.111c-.07.139-.111.292-.167.431a.393.393,0,0,1-.459.306,5.718,5.718,0,0,1-1.363-.32.318.318,0,0,1-.209-.32,1.616,1.616,0,0,1,1.252-1.669c.473-.125.946-.25,1.4-.4A1.026,1.026,0,0,0,151.81,101.424Zm-85.749,45.5a.621.621,0,0,0-.389,0,.161.161,0,0,0-.056.223c.028.028.056.07.1.083.612.264,1.224.542,1.836.793a.224.224,0,0,0,.292-.083.252.252,0,0,0-.111-.348c-.125-.083-.278-.139-.4-.223a.347.347,0,0,1-.181-.4,7.385,7.385,0,0,1,.292-.89c.334-.862.445-.765,1.182-.417a1.274,1.274,0,0,1,.82,1.126c.014.292.056.57.1.862.056.348.083.709.167,1.057a.973.973,0,0,0,1.113.737.227.227,0,0,0,.195-.153.212.212,0,0,0-.07-.236.3.3,0,0,0-.111-.07,1.144,1.144,0,0,1-.681-1.126,4.775,4.775,0,0,0-.25-1.238c-.167-.473-.223-.709.487-.751a1.362,1.362,0,0,0,.876-2.114,2.56,2.56,0,0,0-1.14-.89,16.071,16.071,0,0,1-2.03-.848.743.743,0,0,0-.25-.07.217.217,0,0,0-.223.1.192.192,0,0,0,.028.25c.1.1.209.167.306.25a.379.379,0,0,1,.139.473c-.07.181-.181.362-.236.556a21.762,21.762,0,0,1-1.224,3.018C66.478,146.927,66.423,146.954,66.061,146.927ZM89.953,34.046V35.4c0,.195,0,.4-.014.6a.443.443,0,0,1-.417.445c-.195.028-.4.014-.6.028-.223.014-.4.167-.348.306.056.195.236.181.389.181H91.5a1.372,1.372,0,0,0,.334-.042.206.206,0,0,0,.181-.236.221.221,0,0,0-.153-.209,2.482,2.482,0,0,0-.779-.139c-.306-.042-.445-.167-.473-.473-.028-.334-.014-.668-.028-1-.014-.612.125-.779.807-.709a.7.7,0,0,1,.668.473,1.15,1.15,0,0,0,.1.181.226.226,0,0,0,.236.1.206.206,0,0,0,.167-.181,10.747,10.747,0,0,0-.153-1.641.161.161,0,0,0-.1-.07.158.158,0,0,0-.111.042.3.3,0,0,0-.07.111c-.1.445-.417.528-.807.515a2.68,2.68,0,0,1-.334-.014.432.432,0,0,1-.417-.362,5.843,5.843,0,0,1-.083-.862c-.028-.793.1-.9.9-.946.765-.028,1.5.111,2.253.125a.444.444,0,0,1,.431.348.965.965,0,0,0,.167.431.2.2,0,0,0,.292-.042.426.426,0,0,0,.042-.32,7.966,7.966,0,0,0-.195-.779.516.516,0,0,0-.556-.389c-.362.014-.709.014-1.071.028-.292.014-.57.056-.862.07a10.572,10.572,0,0,1-2.2-.083,1.16,1.16,0,0,0-.654.042.247.247,0,0,0-.153.209c-.014.125.014.236.125.278a1.191,1.191,0,0,0,.32.07c.487.1.584.181.6.64A12.732,12.732,0,0,1,89.953,34.046ZM53.768,50.79a1.736,1.736,0,0,1-.32,1.071,2.363,2.363,0,0,1-.946.709,1.218,1.218,0,0,1-1.266-.042,1.12,1.12,0,0,0-.528-.264.172.172,0,0,0-.111.056.115.115,0,0,0-.028.111,1.193,1.193,0,0,0,.181.278c.306.292.612.584.932.862a.5.5,0,0,0,.167.111c.111.07.25.056.292-.056a1.52,1.52,0,0,1,.9-.751,2.317,2.317,0,0,0,1.363-2.128,1.6,1.6,0,0,0-1.919-1.669,2.194,2.194,0,0,0-.918.362,6.709,6.709,0,0,1-.876.487,2.76,2.76,0,0,1-.57.195.667.667,0,0,1-.765-.389,1.081,1.081,0,0,1-.042-.9,1.8,1.8,0,0,1,1.891-1.168c.153.014.334.139.431-.014.125-.195-.083-.306-.195-.445-.139-.153-.264-.306-.4-.445-.167-.153-.362-.125-.4.1a.706.706,0,0,1-.528.528l-.125.042A2.025,2.025,0,0,0,48.8,48.537a1.626,1.626,0,0,0,.25,1.85,1.546,1.546,0,0,0,1.891.362c.334-.181.654-.375.973-.584a2.763,2.763,0,0,1,.848-.389.713.713,0,0,1,.876.306A1.533,1.533,0,0,1,53.768,50.79Zm90.755,70.173a3.037,3.037,0,0,0-1.488-2.8,2.62,2.62,0,0,0-2.962-.07,3.531,3.531,0,0,0-1.613,2.712.907.907,0,0,0,.028.334,3.293,3.293,0,0,0,3.171,2.628A2.974,2.974,0,0,0,144.523,120.963Zm1.126-5.6c.153-.014.306-.014.473-.028a2.965,2.965,0,0,0,2.531-2.461,3.142,3.142,0,0,0-3.171-3.532,2.757,2.757,0,0,0-1.78.779,3.405,3.405,0,0,0-1.015,2.851,1.607,1.607,0,0,0,.111.445A3.151,3.151,0,0,0,145.649,115.358Zm-33.7,29.51h0a3.9,3.9,0,0,0,0,.4,3,3,0,0,0,1.877,2.628,3.356,3.356,0,0,0,1.043.181,2.436,2.436,0,0,0,2.309-1.057,3.1,3.1,0,0,0,.473-2.976,2.629,2.629,0,0,0-2.211-1.975,3.142,3.142,0,0,0-2.7.834,2.355,2.355,0,0,0-.793,1.766C111.953,144.743,111.953,144.813,111.953,144.868Zm-61.412-8.622a2.65,2.65,0,0,0,.306,1.418,2.551,2.551,0,0,0,2.531,1.613,3.049,3.049,0,0,0,3.018-2.434,2.888,2.888,0,0,0-.195-1.808A3.137,3.137,0,0,0,54.95,133.6a2.406,2.406,0,0,0-1.891-.445A3.134,3.134,0,0,0,50.541,136.246ZM42.767,66.184c.014-1.182-.209-1.266-.834-1.585a.239.239,0,0,0-.306.056.28.28,0,0,0-.07.306.747.747,0,0,0,.139.223c.1.125.195.25.278.375a1.256,1.256,0,0,1,.223,1.015,3.6,3.6,0,0,1-.25.834,1.875,1.875,0,0,1-.89.96,2.626,2.626,0,0,1-3.365-.7,2.478,2.478,0,0,1,.89-3.824,2.868,2.868,0,0,0,.362-.167.3.3,0,0,0,.056-.5,1.27,1.27,0,0,0-.515-.292c-.209-.07-.375-.028-.417.195a2.367,2.367,0,0,1-.668,1.043,3.146,3.146,0,0,0-.834,1.641A3.511,3.511,0,0,0,37,67.951a2.491,2.491,0,0,0,1.1,1.043,3.4,3.4,0,0,0,3.087.042,2.543,2.543,0,0,0,.918-.751A3.632,3.632,0,0,0,42.767,66.184ZM77.437,145.4a1.546,1.546,0,0,0-1.585,1.043,1.578,1.578,0,0,0,.681,1.863,5.386,5.386,0,0,0,.89.459,2.858,2.858,0,0,1,.737.459.737.737,0,0,1,.111,1.113,1.468,1.468,0,0,1-.96.542,1.863,1.863,0,0,1-1.154-.222,1.455,1.455,0,0,1-.89-1.293c-.014-.139-.028-.264-.042-.389,0-.028-.056-.07-.1-.07s-.1.014-.111.042a.709.709,0,0,0-.1.236c-.056.389-.111.793-.167,1.182-.056.362-.042.389.375.389a1.166,1.166,0,0,1,.612.223,3.1,3.1,0,0,0,1.1.473,2.183,2.183,0,0,0,1.989-.834.738.738,0,0,0,.111-.236,1.766,1.766,0,0,0-.362-1.738,2.14,2.14,0,0,0-.654-.459,5.892,5.892,0,0,1-1.043-.584,1.123,1.123,0,0,1-.431-.487.531.531,0,0,1,.042-.57,1.272,1.272,0,0,1,1.266-.57,1.636,1.636,0,0,1,1.391,1.1,1.2,1.2,0,0,0,.1.236.105.105,0,0,0,.111.042c.042,0,.1-.042.1-.07.083-.348.181-.681.25-1.029.028-.153-.111-.292-.25-.209-.334.181-.542.014-.765-.181A1.642,1.642,0,0,0,77.437,145.4Zm23.447,1.655c.5-.056.584,0,.723.459a10.382,10.382,0,0,1,.334,1.293c.1.6.223,1.182.362,1.766a3.228,3.228,0,0,1,.1.528.39.39,0,0,1-.306.459c-.209.07-.431.111-.64.195a.278.278,0,0,0-.139.389.239.239,0,0,0,.292.083l.125-.042a9.7,9.7,0,0,1,1.877-.445,4.446,4.446,0,0,0,.584-.139.269.269,0,0,0,.209-.306.246.246,0,0,0-.306-.195c-.195.028-.389.07-.6.083a.482.482,0,0,1-.6-.4,11.753,11.753,0,0,1-.264-1.168.374.374,0,0,1,.348-.473c.417-.056.862-.139,1.113.348a.147.147,0,0,0,.1.083.268.268,0,0,0,.181,0,.314.314,0,0,0,.111-.153.378.378,0,0,0,0-.125c-.125-.445-.25-.9-.362-1.349,0-.014-.028-.042-.042-.056a.573.573,0,0,0-.111-.042.145.145,0,0,0-.111.056c-.042.1-.07.209-.111.32a.545.545,0,0,1-.236.32,1.615,1.615,0,0,1-.765.209.372.372,0,0,1-.375-.223,5.806,5.806,0,0,1-.348-1.279.452.452,0,0,1,.306-.473,4.159,4.159,0,0,1,.445-.139c.528-.111,1.057-.181,1.571-.32s.918-.111,1.168.417a.174.174,0,0,0,.236.07.2.2,0,0,0,.1-.278c-.125-.264-.25-.515-.389-.779a.393.393,0,0,0-.445-.209c-.236.056-.487.1-.709.167a26.7,26.7,0,0,1-3.435.793,1.2,1.2,0,0,0-.32.083.235.235,0,0,0-.153.264.238.238,0,0,0,.209.223C100.717,147.066,100.8,147.052,100.883,147.052Zm50.579-50.008v-.028c.223,0,.445.014.668,0,.264-.014.334-.083.292-.32a1.478,1.478,0,0,1,.1-.779c.07-.195.139-.375.195-.57a2.217,2.217,0,0,0-.807-2.322,1.11,1.11,0,0,0-.681-.25,1.6,1.6,0,0,0-1.711,1.2c-.111.362-.223.723-.348,1.085a1.6,1.6,0,0,1-.375.626.634.634,0,0,1-.793.125,1.353,1.353,0,0,1-.668-1.349,1.718,1.718,0,0,1,.793-1.321,1.948,1.948,0,0,0,.223-.139c.028-.028.056-.083.042-.111-.028-.056-.07-.139-.111-.139a2.631,2.631,0,0,0-.987-.028.163.163,0,0,0-.125.25.7.7,0,0,1-.056.751,2.116,2.116,0,0,0-.181,1.738,1.5,1.5,0,0,0,.515.751,1.528,1.528,0,0,0,2.281-.515,3.668,3.668,0,0,0,.376-1.14,2.332,2.332,0,0,1,.375-.848.709.709,0,0,1,1.14-.167,1.617,1.617,0,0,1,.612,1.724c-.042.167-.1.348-.153.515a1.186,1.186,0,0,1-.946.848c-.167.042-.348.083-.515.139a.219.219,0,0,0-.07.111.128.128,0,0,0,.1.153A7.939,7.939,0,0,1,151.462,97.043Zm-121.475-.89h0c0-.153-.014-.306,0-.459a.389.389,0,0,1,.278-.348c.459-.1.918-.181,1.377-.236a.342.342,0,0,1,.362.236.909.909,0,0,1-.278,1.168.778.778,0,0,0-.111.07.252.252,0,0,0-.1.236.219.219,0,0,0,.25.181c.431-.07.876-.153,1.307-.236a.155.155,0,0,0,.139-.195.249.249,0,0,0-.125-.139c-.487-.056-.6-.4-.6-.807,0-.07-.014-.139-.014-.195,0-.278.1-.431.348-.487.348-.083.7-.139,1.043-.195.375-.056.515.056.612.431a2.784,2.784,0,0,1,.056.334c.042.375.083.751.111,1.126.028.334.042.668.056,1a.5.5,0,0,1-.292.542,1.272,1.272,0,0,0-.334.223.189.189,0,0,0,0,.25.22.22,0,0,0,.167.07,3.934,3.934,0,0,0,.431-.153c.807-.32.737-.4.626-1.071a32,32,0,0,1-.473-3.63,3.523,3.523,0,0,0-.1-.528.238.238,0,0,0-.223-.209.215.215,0,0,0-.223.195c-.014.083-.014.181-.028.264-.056.487-.125.6-.57.668-1.057.153-2.114.278-3.171.417a.842.842,0,0,1-.264,0c-.362-.014-.473-.111-.542-.459-.028-.153-.028-.306-.056-.459s-.153-.264-.264-.236a.254.254,0,0,0-.181.306,2.736,2.736,0,0,0,.042.334c.028.181.056.348.083.528a10.374,10.374,0,0,1,.139,1.46.717.717,0,0,0,.153.5.2.2,0,0,0,.236.056.185.185,0,0,0,.111-.139A2.1,2.1,0,0,0,29.987,96.153Zm18.552-39.62a1.918,1.918,0,0,1-.111.278c-.1.167-.223.334-.32.5a.261.261,0,0,0,.083.348c.111.083.209.014.292-.07.028-.028.056-.07.083-.1a19.343,19.343,0,0,1,1.446-1.752,1.85,1.85,0,0,0,.195-.264.281.281,0,0,0-.07-.362.262.262,0,0,0-.362.028c-.125.125-.223.278-.348.4-.223.236-.375.25-.626.028-.389-.334-.765-.668-1.14-1.015a7.606,7.606,0,0,0-.807-.7c-.334-.25-.668-.515-1-.779l-.209-.167a.34.34,0,0,1-.056-.487,10.692,10.692,0,0,1,.807-.973c.223-.236.362-.236.654-.083.181.1.348.209.528.292a.233.233,0,0,0,.181-.056.172.172,0,0,0,.014-.236.6.6,0,0,0-.083-.1c-.264-.209-.515-.417-.779-.626s-.4-.195-.626.056c-.278.32-.528.654-.793.987a22.555,22.555,0,0,1-1.933,2.378,1.878,1.878,0,0,0-.278.375.294.294,0,0,0,.014.375c.292.306.6.584.918.876.028.028.139.014.181,0a.167.167,0,0,0,.083-.223,2.291,2.291,0,0,0-.264-.375c-.32-.4-.32-.584.014-1,.209-.264.431-.5.654-.751a.249.249,0,0,1,.362-.042c.181.125.348.278.515.417.515.459.96.987,1.516,1.4.348.264.668.584,1,.876A.908.908,0,0,1,48.539,56.533ZM73.612,38.649a.811.811,0,0,1-.445.848,2.047,2.047,0,0,1-.306.139c-.5.195-1.015.348-1.488.584a1.656,1.656,0,0,1-.445.139c-.306.07-.417.014-.542-.25-.028-.056-.056-.125-.083-.181-.4-1.057-.807-2.114-1.21-3.185-.042-.125-.1-.25-.125-.375a.489.489,0,0,1,.223-.57c.125-.083.264-.153.389-.25a.278.278,0,0,0,.07-.362.27.27,0,0,0-.348-.111l-.125.042a9.505,9.505,0,0,1-1.905.793.072.072,0,0,0-.056.028.234.234,0,0,0-.125.334c.056.125.139.236.292.223a1.788,1.788,0,0,0,.264-.056c.626-.139.64-.139.862.487.014.028.014.042.028.07a24.689,24.689,0,0,0,1.21,3.1,1.656,1.656,0,0,1,.139.445.371.371,0,0,1-.223.445c-.139.07-.292.111-.431.181-.083.042-.153.083-.236.125a.281.281,0,0,0-.07.362.252.252,0,0,0,.292.111c.167-.056.334-.125.5-.195.445-.195.89-.417,1.335-.6.765-.306,1.53-.6,2.295-.9a4.86,4.86,0,0,0,.668-.32.388.388,0,0,0,.209-.5,7.574,7.574,0,0,1-.25-1.113,2.053,2.053,0,0,0-.139-.375.23.23,0,0,0-.167-.07.126.126,0,0,0-.111.139A2.361,2.361,0,0,0,73.612,38.649ZM58.454,142.282a2.34,2.34,0,0,0,1.293,1.947A1.854,1.854,0,0,0,62,143.853a4.871,4.871,0,0,0,.334-.417,21.039,21.039,0,0,0,1.126-1.961,2.2,2.2,0,0,1,.375-.626.489.489,0,0,1,.528-.195,1.909,1.909,0,0,0,.389.07.141.141,0,0,0,.1-.083.131.131,0,0,0-.014-.125.66.66,0,0,0-.139-.139c-.431-.278-.862-.542-1.293-.82a.25.25,0,0,0-.125-.056.27.27,0,0,0-.181.042.193.193,0,0,0-.056.236c.056.153.195.236.306.348a.45.45,0,0,1,.1.542,2.8,2.8,0,0,1-.195.348c-.389.668-.779,1.349-1.168,2.016-.07.111-.139.222-.222.334a1.516,1.516,0,0,1-2.448-.125,1.783,1.783,0,0,1-.1-1.891c.417-.737.918-1.418,1.279-2.183.167-.348.292-.375.709-.306.083.014.167.042.264.056s.195,0,.209-.111a.2.2,0,0,0-.042-.181,10.365,10.365,0,0,0-1.627-1.029.22.22,0,0,0-.167.07.28.28,0,0,0-.056.181c.028.167.167.25.264.375a.442.442,0,0,1,.042.556c-.334.542-.681,1.1-1.015,1.641-.181.306-.362.612-.528.932A1.888,1.888,0,0,0,58.454,142.282Zm64.847,1a2.107,2.107,0,0,0,2.016-2.74,6.36,6.36,0,0,0-.64-1.168c-.375-.528-.737-1.057-1.1-1.585-.223-.32-.32-.64.042-.946a.3.3,0,0,0,.07-.111.145.145,0,0,0-.028-.181c-.056-.028-.139-.056-.181-.028-.487.306-.96.64-1.446.96-.014.014-.042.028-.042.056-.014.056-.042.139-.014.181a.3.3,0,0,0,.139.125c.167.042.292-.056.445-.111.334-.111.431-.083.612.195.528.793,1.057,1.585,1.585,2.392a1.238,1.238,0,0,1,.236.82,1.636,1.636,0,0,1-.973,1.418,1.831,1.831,0,0,1-1.766-.223.335.335,0,0,1-.139-.139c-.556-.834-1.1-1.669-1.655-2.5a.418.418,0,0,1,.014-.5c.083-.111.167-.209.25-.306a.234.234,0,0,0,.042-.306.2.2,0,0,0-.292-.014c-.473.306-.932.612-1.391.918a.325.325,0,0,0-.1.1.234.234,0,0,0-.028.25.2.2,0,0,0,.209.125c.111-.028.209-.07.32-.1.292-.083.4-.042.556.209.334.542.668,1.1,1.015,1.641.181.278.362.556.556.834a1.57,1.57,0,0,0,1.168.7A3.206,3.206,0,0,1,123.3,143.283ZM47.955,129.655c-.389.014-.473-.083-.389-.4.111-.431.25-.848.375-1.279.056-.181.042-.417.25-.515.167-.07.292.07.445.1.028,0,.042.014.07.014a.286.286,0,0,0,.236-.1.233.233,0,0,0,0-.25,1.16,1.16,0,0,0-.111-.167c-.32-.362-.654-.723-.973-1.1a.669.669,0,0,0-.153-.125.254.254,0,0,0-.306.042.209.209,0,0,0-.042.25.3.3,0,0,0,.07.111.964.964,0,0,1,.139.946,22.259,22.259,0,0,0-.681,2.378.652.652,0,0,1-.223.4,9.423,9.423,0,0,0-1.029.946.248.248,0,0,1-.362.014c-.181-.153-.362-.334-.528-.5s-.292-.167-.417-.083q-.209.167.042.459a14.521,14.521,0,0,1,1.391,1.53c.028.042.07.056.1.083a.256.256,0,0,0,.306.042c.111-.083.083-.195.028-.292s-.153-.223-.209-.334a.4.4,0,0,1,.014-.445,2.856,2.856,0,0,1,1.766-1.224c.64-.1,1.279-.195,1.905-.306a1.321,1.321,0,0,1,1.029.1c.028.028.083.014.125.028a.217.217,0,0,0,.223-.264c-.028-.056-.056-.125-.083-.181-.223-.278-.431-.556-.668-.834a1.9,1.9,0,0,0-.236-.236.233.233,0,0,0-.306-.014.252.252,0,0,0-.111.292c.042.125.125.236.167.362a.188.188,0,0,1-.125.264A12.083,12.083,0,0,1,47.955,129.655Zm82.55,2.531c.111-.014.195-.153.153-.223a.657.657,0,0,0-.1-.167,4.278,4.278,0,0,1-.709-.709c-.181-.223-.32-.223-.556,0-.167.153-.32.32-.473.473a28.075,28.075,0,0,1-2.461,2.35,1.858,1.858,0,0,0-.278.292.356.356,0,0,0-.028.431c.209.292.431.57.654.834a.2.2,0,0,0,.181.042c.1-.028.111-.125.111-.223-.028-.209-.181-.348-.264-.528a.461.461,0,0,1,.07-.556,4.365,4.365,0,0,1,.834-.765.307.307,0,0,1,.431.028,1.2,1.2,0,0,1,.181.195c.751.848,1.488,1.711,2.239,2.559.042.056.083.1.125.153a.527.527,0,0,1-.042.779c-.1.125-.209.223-.306.348a.208.208,0,0,0,.028.306.233.233,0,0,0,.306.014,1.477,1.477,0,0,0,.153-.125,8.515,8.515,0,0,1,1.571-1.432,1.2,1.2,0,0,0,.195-.181.233.233,0,0,0-.014-.306.245.245,0,0,0-.292-.1,1.149,1.149,0,0,0-.223.125c-.125.1-.236.209-.362.306a.32.32,0,0,1-.431-.014,1.9,1.9,0,0,1-.236-.236c-.7-.834-1.418-1.641-2.2-2.42a3.642,3.642,0,0,1-.306-.348.32.32,0,0,1,.014-.431c.278-.278.57-.556.876-.82a.4.4,0,0,1,.6,0,4.868,4.868,0,0,0,.417.334A.428.428,0,0,1,130.5,132.186ZM95.126,152.322c-.181.014-.306.028-.445.028-.862.028-.96-.07-1.015-.9s0-1.683-.125-2.531a2.866,2.866,0,0,1,0-.6c.014-.431.07-.5.459-.626a2.971,2.971,0,0,0,.375-.125.2.2,0,0,0,.125-.209c0-.139-.1-.195-.223-.209a2.528,2.528,0,0,0-.459,0,10.152,10.152,0,0,1-1.585.125c-.042,0-.083.014-.125.014a.222.222,0,0,0-.195.167.208.208,0,0,0,.139.264c.195.056.389.083.584.125a.413.413,0,0,1,.348.362c.014.153.028.306.028.459a19.768,19.768,0,0,0,.139,2.865,2.155,2.155,0,0,1-.014.6.342.342,0,0,1-.334.348c-.181.028-.348.042-.528.083s-.32.195-.264.32a.268.268,0,0,0,.32.167.125.125,0,0,0,.07-.014c.862-.1,1.724-.195,2.587-.223.6-.014,1.2-.083,1.794-.1a1.7,1.7,0,0,0,.264-.028c.209-.042.32-.125.348-.348.056-.348.083-.709.125-1.057a2.673,2.673,0,0,0,0-.334c-.014-.083-.042-.181-.139-.195a.161.161,0,0,0-.181.153c-.056.264-.111.528-.167.779a.665.665,0,0,1-.6.542A7.247,7.247,0,0,1,95.126,152.322ZM35.772,102.064c.028.654,0,.7-.515.834-.111.028-.223.042-.32.07-.556.139-1.113.292-1.669.431-.431.111-.862.209-1.293.306s-.473.056-.681-.32a.494.494,0,0,1-.056-.125c-.014-.014-.028-.042-.042-.056a.264.264,0,0,0-.292-.083.209.209,0,0,0-.139.264c.153.626.32,1.238.487,1.864.014.042.028.1.056.111a.334.334,0,0,0,.167.1.182.182,0,0,0,.195-.139c.07-.181-.014-.348-.028-.528a.328.328,0,0,1,.264-.4,2.654,2.654,0,0,1,.57-.153c.946-.167,1.85-.487,2.767-.709a3.183,3.183,0,0,1,.389-.1.4.4,0,0,1,.445.223,4.831,4.831,0,0,0,.25.459.193.193,0,0,0,.236.056.18.18,0,0,0,.111-.209.974.974,0,0,0-.042-.195l-.417-1.752a.529.529,0,0,0-.111-.236.187.187,0,0,0-.167-.07.209.209,0,0,0-.139.125A1.051,1.051,0,0,0,35.772,102.064Z" transform="translate(-21.837 -22.011)" fill="#383e42"/>
    <path id="Path_903" data-name="Path 903" d="M142.1,191.466c0-1.2-.042-2.406.014-3.6a34.111,34.111,0,0,1,.417-4.116,53.286,53.286,0,0,1,1.975-8.163,49.976,49.976,0,0,1,1.877-4.853,47.78,47.78,0,0,1,3.379-6.2,48.852,48.852,0,0,1,3.936-5.3c1.015-1.182,2.058-2.336,3.185-3.421a47.413,47.413,0,0,1,8.5-6.647,50.316,50.316,0,0,1,11.9-5.34,46.7,46.7,0,0,1,6.773-1.5c1.293-.181,2.6-.306,3.908-.4,1.975-.153,3.949-.111,5.938-.083.862.014,1.724.153,2.587.209,1.113.07,2.211.25,3.31.417a48.76,48.76,0,0,1,9.276,2.448,43.721,43.721,0,0,1,4.826,2.114,47.533,47.533,0,0,1,8.261,5.271c.973.779,1.919,1.571,2.823,2.448.556.542,1.14,1.071,1.683,1.613a48.247,48.247,0,0,1,8.094,10.639,49.386,49.386,0,0,1,5.145,13.267,50.908,50.908,0,0,1,.918,5.59,55.413,55.413,0,0,1,.222,7.593c-.028,1.335-.181,2.656-.334,3.991-.139,1.168-.334,2.336-.542,3.491a42.517,42.517,0,0,1-1.794,6.633,48.287,48.287,0,0,1-6.175,12.015c-.848,1.182-1.711,2.322-2.642,3.435-.6.723-1.224,1.4-1.863,2.086s-1.349,1.363-2.03,2.03a45.041,45.041,0,0,1-3.477,3.018,47.092,47.092,0,0,1-4.645,3.254,52.154,52.154,0,0,1-7.245,3.685,49.236,49.236,0,0,1-10.5,3,35.8,35.8,0,0,1-4.033.459c-1.822.111-3.644.223-5.465.223a36.724,36.724,0,0,1-4.784-.348,54.835,54.835,0,0,1-6.731-1.321,47.262,47.262,0,0,1-7.482-2.628,46.6,46.6,0,0,1-11.932-7.607c-1.113-.96-2.211-1.933-3.226-2.99a55.415,55.415,0,0,1-4.923-5.883,47.611,47.611,0,0,1-4.3-7.134,49.033,49.033,0,0,1-4.1-12.377,44.739,44.739,0,0,1-.681-5.09c-.056-.626-.042-1.252-.042-1.864v-2.072C142.073,191.466,142.087,191.466,142.1,191.466Zm59.938-21.583a1.254,1.254,0,0,1-.125-.139,2.683,2.683,0,0,1-.292-.946c.014-1.113-.042-2.225-.1-3.338-.083-1.335-.222-2.656-.375-3.977-.083-.668-.181-1.321-.264-1.989a.838.838,0,0,1,.862-1.015c.181-.014.362,0,.528,0,.4-.014.487-.1.542-.515a7.709,7.709,0,0,0,.1-.793,7.553,7.553,0,0,0,.028-.793.434.434,0,0,0-.4-.459,4.434,4.434,0,0,0-.862-.028.4.4,0,0,0-.375.334,3.75,3.75,0,0,0-.056.389l-.125.918c-.014.083-.042.181-.153.181s-.153-.07-.209-.153a3.156,3.156,0,0,1-.362-.793c-.125-.445-.25-.9-.375-1.349a12.2,12.2,0,0,0-.487-1.53,2.193,2.193,0,0,0-1.21-1.182c-.292-.111-.584-.223-.876-.306a23.459,23.459,0,0,0-4.033-.89,11.793,11.793,0,0,0-2.517-.167c-.834.083-1.683.1-2.517.25a26.459,26.459,0,0,0-4.13,1.057,2.3,2.3,0,0,0-1.544,1.627c-.195.64-.362,1.279-.528,1.933a5.469,5.469,0,0,1-.542,1.363c-.07.111-.125.264-.278.25-.181-.014-.167-.181-.181-.306-.042-.264-.07-.528-.1-.793a4.421,4.421,0,0,0-.083-.6c-.07-.278-.181-.362-.473-.375a2.511,2.511,0,0,0-.848.125.387.387,0,0,0-.306.389,6,6,0,0,0,.153,1.724c.07.278.181.362.473.375.264.014.528,0,.807.014a.7.7,0,0,1,.6.362.94.94,0,0,1,.125.64c-.07.57-.125,1.154-.209,1.724-.167,1.21-.25,2.434-.32,3.657-.083,1.266-.1,2.531-.139,3.8a1.375,1.375,0,0,1-.292.862,3.889,3.889,0,0,0-.348.487.962.962,0,0,0,.223,1.307,1.235,1.235,0,0,0,.654.306.683.683,0,0,1,.64.723c.014.222.042.445.07.668a6.5,6.5,0,0,0,.111.723c.1.417.236.584.668.612a11.441,11.441,0,0,0,1.2,0,.64.64,0,0,0,.626-.5c.056-.167.111-.334.153-.515.056-.264.1-.528.167-.779.083-.348.209-.431.57-.4.292.014.57.07.862.07,2.42.014,4.853.028,7.273.014a19.061,19.061,0,0,0,2.67-.111,9.61,9.61,0,0,1,1.266-.028c.306,0,.4.083.473.362.056.236.083.487.125.723s.083.487.139.723a.516.516,0,0,0,.459.417,3.9,3.9,0,0,0,1.391-.014.693.693,0,0,0,.584-.57,2.786,2.786,0,0,0,.056-.334c.042-.417.1-.834.139-1.252a.5.5,0,0,1,.4-.473,4.16,4.16,0,0,0,.445-.139,1.707,1.707,0,0,0,.737-.556.466.466,0,0,0,.042-.612,2.411,2.411,0,0,0-.139-.264A.674.674,0,0,1,202.038,169.882Zm6.814,18.148a1.357,1.357,0,0,0-.111.779c.014,1.2.028,2.392.028,3.6,0,1.307-.014,2.614-.028,3.936a3.279,3.279,0,0,0,.028.528.353.353,0,0,0,.348.348c.459.014.932.014,1.391.014a.306.306,0,0,0,.306-.292,4.307,4.307,0,0,0,.028-.6c-.014-1.794-.028-3.6-.028-5.4,0-1.738.028-3.463.028-5.2,0-.223-.014-.445-.028-.668a.341.341,0,0,0-.292-.32,5.7,5.7,0,0,0-1.46-.014.342.342,0,0,0-.292.32.987.987,0,0,0-.014.195c0,.779-.014,1.558,0,2.336a1.606,1.606,0,0,0,.1.431Zm-44.321-3.2a1.681,1.681,0,0,0-.264.807c-.292,1.683-.584,3.365-.89,5.048-.139.793-.278,1.571-.417,2.364-.014.1-.1.306.181.195.056-.028.07.125.028.153-.389.32-.362.779-.445,1.21-.1.473-.181.96-.264,1.446-.042.236-.1.487-.125.723-.042.278.07.431.362.445a10.154,10.154,0,0,0,1.126,0c.348-.014.459-.125.528-.487.056-.278.083-.57.139-.848s.1-.528.139-.793a.454.454,0,0,1,.459-.4,8.013,8.013,0,0,1,1,0c.375.014.487.1.556.459s.111.751.167,1.113c.028.181.014.362.056.528.07.306.195.431.5.431.4.014.807.014,1.2,0s.473-.153.4-.515c-.056-.278-.125-.57-.181-.848-.125-.765-.236-1.53-.375-2.295-.181-.987-.32-1.975-.542-2.948-.181-.82-.278-1.669-.417-2.489-.139-.848-.278-1.711-.431-2.559l-.042-.334a.568.568,0,0,0-.64-.542c-.487-.014-.973,0-1.46.014a2.7,2.7,0,0,0-.348.125Zm-9.61,1.335h0a.354.354,0,0,0,.223.223,1.206,1.206,0,0,1,.848,1.154c.028.264.014.528.028.793a6.529,6.529,0,0,0,.028.737.369.369,0,0,0,.389.375c.417.014.848.014,1.266,0a.361.361,0,0,0,.389-.375,7.6,7.6,0,0,0-.125-2.448,2.7,2.7,0,0,0-2.114-2.072,3.472,3.472,0,0,0-2.336.292,2.552,2.552,0,0,0-1.266,1.321,3.66,3.66,0,0,0-.278,1.627c0,1.015.028,2.044,0,3.059a7.731,7.731,0,0,0,.014,1.391.841.841,0,0,1,0,.264,13.564,13.564,0,0,0,0,1.989,3.352,3.352,0,0,0,.542,1.683,2.259,2.259,0,0,0,1.182,1.029,3.863,3.863,0,0,0,1.905.223,2.693,2.693,0,0,0,2.295-1.877,3.484,3.484,0,0,0,.209-1.307c-.014-.362,0-.709,0-1.071a3.906,3.906,0,0,0-.014-.4.449.449,0,0,0-.473-.459c-.348-.014-.709-.014-1.071,0-.389.014-.5.125-.515.542s-.014.848-.014,1.266a2.115,2.115,0,0,1-.1.723.9.9,0,0,1-1.516.334.879.879,0,0,1-.264-.6c-.014-.264-.028-.528-.028-.793v-6.2a1.163,1.163,0,0,1,.431-1C154.672,186.487,154.783,186.32,154.923,186.167Zm36.63,43.89H206.03c.306-.014.375-.111.236-.375-.1-.195-.223-.389-.334-.57-2.642-4.353-5.271-8.706-7.927-13.058-1.46-2.392-2.934-4.77-4.395-7.162-.4-.668-.793-1.335-1.21-1.989a.774.774,0,0,1,.014-.973,5.033,5.033,0,0,0,.278-.459c.4-.668.807-1.335,1.2-2a2.338,2.338,0,0,0,.209-.417c.07-.181,0-.32-.195-.445a.266.266,0,0,0-.4.07c-.125.153-.223.334-.334.5-.417.654-.834,1.321-1.266,1.961-.167.25-.348.25-.528.014a5.029,5.029,0,0,1-.306-.445c-.306-.487-.612-.987-.918-1.474-.125-.195-.25-.375-.375-.556a.261.261,0,0,0-.236-.111.4.4,0,0,0-.348.528c.083.181.181.362.278.528.431.723.848,1.46,1.293,2.183a1,1,0,0,1,.014,1.182l-.167.292c-.362.584-.709,1.182-1.085,1.766-1.544,2.5-3.1,4.979-4.631,7.5q-2.712,4.443-5.4,8.9c-.779,1.293-1.558,2.587-2.336,3.894-.111.195-.389.4-.25.64.111.181.417.07.626.083.153.014.306,0,.473,0Zm-9.54-39.12h0V186.07c0-.292,0-.584-.014-.862-.028-.376-.111-.487-.487-.5-.473-.014-.932-.014-1.4-.014-.862,0-.862,0-1.029.862-.32,1.724-.626,3.449-.946,5.173a1.373,1.373,0,0,1-.181.57.16.16,0,0,1-.236,0,1.734,1.734,0,0,1-.139-.375c-.139-.765-.264-1.53-.4-2.295-.209-1.14-.431-2.267-.654-3.407-.083-.445-.181-.515-.626-.528-.473-.014-.932-.014-1.4,0-.82.014-.876.042-.876.862a30.7,30.7,0,0,0,.056,3.393.842.842,0,0,1,0,.264,8.551,8.551,0,0,0-.056,1.46c.014.737.056,1.474.028,2.2-.056,1.14,0,2.267-.028,3.407a3.279,3.279,0,0,0,.028.528.38.38,0,0,0,.389.389,6.954,6.954,0,0,0,.932.028c.473-.014.584-.139.6-.6,0-.306-.028-.626-.014-.932a12.689,12.689,0,0,0-.042-2.058,1.307,1.307,0,0,1,0-.4,15.875,15.875,0,0,0,.042-1.989c.014-.334,0-.668.014-1,0-.028.056-.07.083-.083a.1.1,0,0,1,.111.028.738.738,0,0,1,.111.236c.1.431.181.876.264,1.307.278,1.571.542,3.157.834,4.728.139.737.195.779,1.043.765a.125.125,0,0,0,.07-.014.458.458,0,0,0,.417-.375c.042-.223.1-.431.139-.654.153-.9.264-1.808.459-2.7.222-.973.348-1.975.584-2.948.042-.181,0-.5.223-.487.292.014.209.348.209.542.014,1.585,0,3.157,0,4.742a4.346,4.346,0,0,1-.056.6,3.459,3.459,0,0,0,.042,1,.31.31,0,0,0,.264.264,5.362,5.362,0,0,0,1.335,0,.3.3,0,0,0,.264-.264,5.373,5.373,0,0,0,.042-.668C182.013,194.5,182.013,192.717,182.013,190.937Zm54.32.6a47.163,47.163,0,0,0-.236-4.965,41.518,41.518,0,0,0-.626-4.353,47.01,47.01,0,0,0-3.574-11.153,48.042,48.042,0,0,0-6.314-10.1c-.083-.1-.181-.195-.278-.292a.213.213,0,0,0-.25-.042c-.362.181-.515.431-.236.723l.167.209a47.362,47.362,0,0,1,3.866,5.521,47.253,47.253,0,0,1,5.66,14.616,44.088,44.088,0,0,1,.793,5.41c.111,1.307.195,2.614.209,3.922.014.848-.028,1.683-.07,2.531-.07,1.154-.153,2.309-.278,3.449a41.082,41.082,0,0,1-.751,4.534,47.531,47.531,0,0,1-4.687,12.586,46.384,46.384,0,0,1-5.938,8.441,2.667,2.667,0,0,0-.25.306.278.278,0,0,0-.028.181.452.452,0,0,0,.779.167q.292-.292.542-.584c.82-.987,1.627-2,2.392-3.032a44.8,44.8,0,0,0,3.532-5.66,47.76,47.76,0,0,0,3.644-9.012,48.825,48.825,0,0,0,1.738-9.5A23.863,23.863,0,0,0,236.332,191.535Zm-90.6-.153a39.868,39.868,0,0,0,.223,4.993c.153,1.5.375,3,.654,4.492A47.889,47.889,0,0,0,151,213.549a44.962,44.962,0,0,0,4.756,7.4c.236.292.473.584.723.876.153.167.264.181.459.042.362-.25.306-.375.1-.64-.654-.834-1.335-1.669-1.961-2.531a41.783,41.783,0,0,1-3-4.881,50.582,50.582,0,0,1-2.517-5.521,47.1,47.1,0,0,1-2.169-7.621,41.209,41.209,0,0,1-.681-4.881c-.125-1.5-.236-3.018-.222-4.52q.021-1.231.083-2.461c.083-1.418.223-2.837.417-4.242a46.727,46.727,0,0,1,4.6-14.63,45.376,45.376,0,0,1,5.7-8.678c.125-.153.25-.306.362-.473a.29.29,0,0,0,.042-.181.667.667,0,0,0-.4-.417c-.153-.07-.25.07-.334.167-.528.654-1.071,1.307-1.585,1.975a47.057,47.057,0,0,0-7.537,14.713,48.906,48.906,0,0,0-1.377,5.632,36.408,36.408,0,0,0-.515,3.7c-.07.89-.181,1.766-.223,2.656C145.7,189.783,145.73,190.576,145.73,191.382Zm58.172-3.8h.014c-.014-.292-.028-.57-.056-.862a2.507,2.507,0,0,0-.07-.264,2.749,2.749,0,0,0-2.823-1.989,3.326,3.326,0,0,0-.973.167,2.4,2.4,0,0,0-1.7,1.558,4.046,4.046,0,0,0-.125,2.156,4.255,4.255,0,0,0,.96,2.016,15,15,0,0,0,1.363,1.46q.459.438.876.918a2.876,2.876,0,0,1,.654,1.571,1.029,1.029,0,0,1-.209.82.912.912,0,0,1-1,.362.992.992,0,0,1-.779-.82,6.365,6.365,0,0,1-.042-.737,2.115,2.115,0,0,0-.1-.723.444.444,0,0,0-.431-.348q-.5-.021-1,0c-.4.014-.515.125-.528.528a7.615,7.615,0,0,0,.153,1.863,2.44,2.44,0,0,0,.862,1.46,3.434,3.434,0,0,0,3.282.5.072.072,0,0,0,.056-.028,2.948,2.948,0,0,0,1.752-2.281A4.257,4.257,0,0,0,204,193.4a4.047,4.047,0,0,0-1.043-2.058c-.6-.626-1.21-1.238-1.808-1.863a3.9,3.9,0,0,1-.946-1.446,1.358,1.358,0,0,1,.083-1.224.782.782,0,0,1,.723-.389.773.773,0,0,1,.737.473,1.388,1.388,0,0,1,.139.584c.014.264.014.528.042.793a.445.445,0,0,0,.389.473,2.888,2.888,0,0,0,1.2,0,.434.434,0,0,0,.362-.431A6.282,6.282,0,0,0,203.9,187.586Zm-16.674,3.379h0v5.465a2.543,2.543,0,0,0,.028.459.329.329,0,0,0,.306.306,7.319,7.319,0,0,0,1.46.014.341.341,0,0,0,.306-.306c.014-.195.028-.4.028-.6,0-1.085,0-2.183.014-3.268,0-.668.083-.723.709-.765.445-.028.89-.07,1.321-.139a2.292,2.292,0,0,0,1.7-1.168,3.422,3.422,0,0,0,.389-1.474c.014-.668.014-1.335-.014-2a3.439,3.439,0,0,0-.292-1.293,2.412,2.412,0,0,0-2.2-1.488c-1.015-.042-2.044-.014-3.073-.028a2.7,2.7,0,0,0-.334.028.329.329,0,0,0-.306.306c-.028.292-.042.57-.042.862Q187.228,188.441,187.228,190.965Zm41.609,6.258v.014h1.933c.153,0,.306,0,.459-.014a.389.389,0,0,0,.389-.389,11.442,11.442,0,0,0-.028-1.2.341.341,0,0,0-.292-.32,2.2,2.2,0,0,0-.528-.042h-1.6a3.28,3.28,0,0,1-.528-.028.383.383,0,0,1-.334-.292,1.911,1.911,0,0,1-.07-.389c-.014-.737-.028-1.46,0-2.2.028-.57.236-.723.82-.709a.522.522,0,0,1,.139.014,2.359,2.359,0,0,0,.987-.042c.306-.056.4-.139.417-.431a6.945,6.945,0,0,0,0-.932c-.028-.362-.139-.459-.5-.473s-.709-.014-1.071-.014c-.681-.014-.779-.1-.807-.751-.014-.515,0-1.015,0-1.53a1.967,1.967,0,0,1,.028-.4.558.558,0,0,1,.57-.542,3.9,3.9,0,0,1,.4,0c.487,0,.973.014,1.46.014a2.543,2.543,0,0,0,.459-.028.386.386,0,0,0,.348-.348,5.361,5.361,0,0,0,.028-.668c0-.751-.07-.82-.848-.834h-3.8a2.678,2.678,0,0,0-.334.014c-.264.028-.348.111-.389.375a2.7,2.7,0,0,0-.028.334c0,1.015-.056,2.044.014,3.059a5.608,5.608,0,0,1,.042,1.182,10.247,10.247,0,0,0-.042,1.46v.528a16.374,16.374,0,0,0,.028,2.336,1.954,1.954,0,0,1,0,.4,10.7,10.7,0,0,0-.028,2,2.848,2.848,0,0,0,.1.584.344.344,0,0,0,.292.25,2.681,2.681,0,0,0,.334.014C227.515,197.223,228.169,197.223,228.837,197.223Zm-11.4-3.991h0c-.014.487-.014.973-.014,1.46v1.53a2.9,2.9,0,0,0,.056.6.434.434,0,0,0,.459.4c.25.014.487.014.737.014.82,0,.876-.042.876-.862a22.788,22.788,0,0,1,.07-2.392,2.865,2.865,0,0,0,0-.6c-.07-.793-.014-1.585-.07-2.392a5.545,5.545,0,0,1,.028-1.071,6.119,6.119,0,0,0,0-1.335,5.149,5.149,0,0,1,.056-1.6c.056-.264.125-.348.4-.362a4.368,4.368,0,0,1,1.126-.028c.348.056.5-.083.515-.431a9.172,9.172,0,0,0-.014-1.071c-.014-.264-.111-.375-.362-.4a4.3,4.3,0,0,0-.6-.028c-.751.014-1.516.042-2.267.042s-1.46-.028-2.2-.042c-.153,0-.306,0-.473.014a.4.4,0,0,0-.375.334,3,3,0,0,0-.083,1.057.5.5,0,0,0,.4.473,2.523,2.523,0,0,0,.793.083,2.221,2.221,0,0,1,.528.014c.292.042.4.139.431.417a3.582,3.582,0,0,1,.028.862,2.087,2.087,0,0,0,.083,1.363.239.239,0,0,1-.014.195,2.229,2.229,0,0,0-.125,1.043C217.419,191.452,217.433,192.342,217.433,193.232Zm-35.615,9.206a.487.487,0,0,0-.111-.07.659.659,0,0,0-.612.181c-.167.181-.362.334-.515.515-.876,1-1.85,1.919-2.781,2.865l-6.4,6.522c-2.03,2.086-4.075,4.158-6.105,6.244a1.063,1.063,0,0,0-.236.32c-.028.042,0,.125.042.181a.165.165,0,0,0,.236.056,3.018,3.018,0,0,0,.4-.334c1.836-1.85,3.657-3.685,5.493-5.549,1.085-1.113,2.169-2.239,3.254-3.338,1.224-1.252,2.489-2.475,3.7-3.755,1.113-1.182,2.253-2.336,3.393-3.477.083-.083.153-.167.223-.25C181.818,202.535,181.818,202.48,181.818,202.438Zm.014-20.665c.014-.125-.083-.195-.153-.278-.89-.932-1.808-1.836-2.7-2.767-2.517-2.642-5.145-5.173-7.649-7.816-1.113-1.182-2.281-2.309-3.421-3.463-.709-.709-1.4-1.418-2.114-2.128-.139-.139-.292-.278-.445-.4a.2.2,0,0,0-.278.264,1.723,1.723,0,0,0,.25.306c.932.946,1.864,1.919,2.781,2.865,2.74,2.823,5.507,5.618,8.261,8.427q2.295,2.336,4.6,4.645c.1.1.195.195.292.278a.548.548,0,0,0,.5.125C181.776,181.828,181.8,181.787,181.832,181.773ZM217.669,219.1a1.342,1.342,0,0,0-.042-.153,1.788,1.788,0,0,0-.264-.292c-1.516-1.544-3.032-3.059-4.52-4.617-2.058-2.156-4.2-4.214-6.258-6.383-1.53-1.613-3.115-3.171-4.687-4.742-.125-.125-.25-.25-.389-.375a.577.577,0,0,0-.487-.153.144.144,0,0,0-.111.056.135.135,0,0,0,.014.125,4.79,4.79,0,0,0,.362.389c1.224,1.266,2.461,2.5,3.685,3.769,2.336,2.448,4.77,4.784,7.092,7.231,1.321,1.391,2.684,2.726,4.033,4.075.362.362.723.723,1.085,1.071a.448.448,0,0,0,.278.167C217.53,219.293,217.656,219.209,217.669,219.1ZM201,181.842a.511.511,0,0,0,.445-.111c.153-.139.292-.264.431-.417,1.418-1.446,2.823-2.893,4.242-4.339,2.336-2.378,4.7-4.728,7.009-7.134,1.363-1.432,2.781-2.809,4.172-4.228a4.79,4.79,0,0,0,.362-.389.192.192,0,0,0-.028-.292.19.19,0,0,0-.25,0,7.1,7.1,0,0,0-.584.542c-2.378,2.434-4.8,4.826-7.148,7.273-1.933,2-3.908,3.949-5.855,5.938-.89.9-1.766,1.822-2.642,2.726-.083.083-.153.167-.223.25a.131.131,0,0,0-.014.125C200.912,181.8,200.968,181.828,201,181.842Z" transform="translate(-122.199 -121.941)" fill="#383e42"/>
    <path id="Path_904" data-name="Path 904" d="M389.856,78.5a1.523,1.523,0,0,1,.918.348,2.768,2.768,0,0,1,1.126,1.822,2.247,2.247,0,0,1-.9,2.336,3.875,3.875,0,0,1-1.738.64c-.278.042-.4-.042-.487-.334-.083-.32-.139-.654-.223-.973-.209-.89-.4-1.78-.64-2.656-.181-.681.028-.862.612-.973Q389.209,78.6,389.856,78.5Z" transform="translate(-333.783 -67.439)" fill="#383e42"/>
    <path id="Path_905" data-name="Path 905" d="M836.1,241.38a1.123,1.123,0,0,1-1.836.89,5.3,5.3,0,0,1-.932-1.21.323.323,0,0,1,.056-.431,6.46,6.46,0,0,1,1.266-.96.418.418,0,0,1,.5.028,3.235,3.235,0,0,1,.89,1.377A1.019,1.019,0,0,1,836.1,241.38Z" transform="translate(-717.271 -206.135)" fill="#383e42"/>
    <path id="Path_906" data-name="Path 906" d="M601.126,81.431a6.829,6.829,0,0,1-1.335-.32.325.325,0,0,1-.25-.4,6.778,6.778,0,0,1,.389-1.474.5.5,0,0,1,.64-.334,7.218,7.218,0,0,1,.9.236,1.3,1.3,0,0,1,.515.306,1.054,1.054,0,0,1,.334,1.307A1.171,1.171,0,0,1,601.126,81.431Z" transform="translate(-516.03 -67.77)" fill="#383e42"/>
    <path id="Path_907" data-name="Path 907" d="M797.615,204.809a1.5,1.5,0,0,1-.083.278c-.222.528-.459,1.057-.681,1.585-.042.083-.083.153-.125.236a.21.21,0,0,1-.292.07,4.522,4.522,0,0,1-1.085-1.154.269.269,0,0,1,.083-.4,3.834,3.834,0,0,1,.528-.278c.389-.167.779-.334,1.168-.487a.816.816,0,0,1,.32-.056C797.532,204.6,797.587,204.683,797.615,204.809Z" transform="translate(-684.567 -176.002)" fill="#383e42"/>
    <path id="Path_908" data-name="Path 908" d="M548.936,76.278c-.362-.07-.751-.125-1.14-.223-.292-.07-.362-.236-.222-.5.236-.473.5-.932.751-1.4a3.728,3.728,0,0,1,.25-.389.177.177,0,0,1,.278.028,1.18,1.18,0,0,1,.125.306c.139.528.264,1.071.4,1.613.014.07.028.125.042.195a.308.308,0,0,1-.278.375Z" transform="translate(-471.238 -63.311)" fill="#383e42"/>
    <path id="Path_909" data-name="Path 909" d="M759.768,161.116a.912.912,0,0,1-.445.765,1.254,1.254,0,0,1-1.266.111,6.792,6.792,0,0,1-1.544-1.029,1.79,1.79,0,0,1-.222-.236.468.468,0,0,1-.042-.668c.292-.417.6-.82.918-1.224a.361.361,0,0,1,.584-.07c.542.515,1.182.946,1.7,1.5A1.511,1.511,0,0,1,759.768,161.116Z" transform="translate(-650.85 -136.44)" fill="#383e42"/>
    <path id="Path_910" data-name="Path 910" d="M805.966,746.44a1.93,1.93,0,0,1,1.5.654,2.126,2.126,0,0,1,.6,2.531,4.449,4.449,0,0,1-.807,1.224c-.236.278-.4.292-.681.056-.445-.362-.89-.751-1.321-1.126s-.876-.751-1.307-1.126c-.487-.445-.5-.612-.07-1.1a7.664,7.664,0,0,1,.751-.751A1.376,1.376,0,0,1,805.966,746.44Z" transform="translate(-691.693 -642.469)" fill="#383e42"/>
    <path id="Path_911" data-name="Path 911" d="M115.7,692.758a2,2,0,0,1-1.293-.473,3.869,3.869,0,0,1-1.015-1.391c-.125-.278-.083-.431.209-.612a12.34,12.34,0,0,1,1.1-.626,13.349,13.349,0,0,0,1.558-.9c.153-.1.306-.181.459-.264.375-.195.542-.153.765.209a5.911,5.911,0,0,1,.431.834,2.11,2.11,0,0,1-.807,2.74A2.518,2.518,0,0,1,115.7,692.758Z" transform="translate(-97.436 -592.499)" fill="#383e42"/>
    <path id="Path_912" data-name="Path 912" d="M290.067,119.716c-.028.195-.028.4-.07.6a2.168,2.168,0,0,1-2.74,1.836,2.212,2.212,0,0,1-1.585-1.1,3.572,3.572,0,0,1-.6-2.016,1.741,1.741,0,0,1,.556-1.238,2.565,2.565,0,0,1,2.03-.848,2.343,2.343,0,0,1,1.961,1.182A3.207,3.207,0,0,1,290.067,119.716Z" transform="translate(-245.3 -100.533)" fill="#383e42"/>
    <path id="Path_913" data-name="Path 913" d="M136.237,257.157a2.355,2.355,0,0,1,1.961.96,3.288,3.288,0,0,1,.7,1.432,2.248,2.248,0,0,1-1.085,2.378,3.313,3.313,0,0,1-1.2.362A2.062,2.062,0,0,1,135.4,262a4.845,4.845,0,0,1-.973-.709,2.1,2.1,0,0,1-.431-2.726,2.593,2.593,0,0,1,.6-.793A2.261,2.261,0,0,1,136.237,257.157Z" transform="translate(-114.959 -221.244)" fill="#383e42"/>
    <path id="Path_914" data-name="Path 914" d="M892.689,574.61a4.284,4.284,0,0,1-.236,1.071c-.1.278-.236.375-.5.32-.431-.1-.862-.195-1.293-.32-.32-.1-.375-.236-.334-.556.042-.278.111-.57.181-.848a1.3,1.3,0,0,1,.362-.626.931.931,0,0,1,1.071-.32,1.04,1.04,0,0,1,.751.918A3.02,3.02,0,0,1,892.689,574.61Z" transform="translate(-766.374 -493.403)" fill="#383e42"/>
    <path id="Path_915" data-name="Path 915" d="M333,871.923a2.416,2.416,0,0,1-.737-.195,7.149,7.149,0,0,1-.681-.292.35.35,0,0,1-.195-.445,5.744,5.744,0,0,1,.556-1.349.393.393,0,0,1,.445-.209,2.753,2.753,0,0,1,1.321.612,1.055,1.055,0,0,1,.264,1.377A1.034,1.034,0,0,1,333,871.923Z" transform="translate(-285.157 -748.371)" fill="#383e42"/>
    <path id="Path_916" data-name="Path 916" d="M844.474,696.233a2.947,2.947,0,0,1-2.615-1.891,1.708,1.708,0,0,1-.028-.987,2.327,2.327,0,0,1,1.432-1.724,2.187,2.187,0,0,1,1.989.069,2.986,2.986,0,0,1,1.419,1.766,2.25,2.25,0,0,1-2.2,2.767Z" transform="translate(-724.583 -595.126)" fill="#383e42"/>
    <path id="Path_917" data-name="Path 917" d="M876.59,633.738a1.967,1.967,0,0,1-.7,1.572,2.263,2.263,0,0,1-2.475.459,2.892,2.892,0,0,1-1.6-1.238,1.729,1.729,0,0,1-.223-.821,2.474,2.474,0,0,1,1.154-2.2,2.165,2.165,0,0,1,1.391-.362,2.351,2.351,0,0,1,1.349.542,3.317,3.317,0,0,1,.876,1.085A1.837,1.837,0,0,1,876.59,633.738Z" transform="translate(-750.261 -543.228)" fill="#383e42"/>
    <path id="Path_918" data-name="Path 918" d="M655.96,868.688a2.323,2.323,0,0,1-.222,1.1,1.883,1.883,0,0,1-1.766,1.2,2.642,2.642,0,0,1-1.043-.153,2,2,0,0,1-.584-.32,3.219,3.219,0,0,1-.946-3.087,1.705,1.705,0,0,1,.167-.362,2.456,2.456,0,0,1,3-.821A2.429,2.429,0,0,1,655.96,868.688Z" transform="translate(-560.601 -745.441)" fill="#383e42"/>
    <path id="Path_919" data-name="Path 919" d="M214.083,804.237a2.609,2.609,0,0,1-1.446,2.545,2.806,2.806,0,0,1-.807.292,2.115,2.115,0,0,1-2.378-1.266,2.5,2.5,0,0,1,.751-2.948,2.312,2.312,0,0,1,1.321-.723,1.729,1.729,0,0,1,.6,0A2.515,2.515,0,0,1,214.083,804.237Z" transform="translate(-180.025 -690.419)" fill="#383e42"/>
    <path id="Path_920" data-name="Path 920" d="M474.822,724.915c-1.043,0-2.086.014-3.129,0-.681-.014-.751-.125-.431-.737.765-1.474,1.544-2.948,2.322-4.422.292-.556.584-1.1.89-1.641a3.13,3.13,0,0,1,.167-.292c.153-.223.32-.236.473-.014a2.8,2.8,0,0,1,.195.348c1.029,1.975,2.072,3.936,3.087,5.91.4.779.348.862-.5.876-1.029-.014-2.058-.014-3.073-.028Z" transform="translate(-405.44 -617.703)" fill="#383e42"/>
    <path id="Path_921" data-name="Path 921" d="M446.142,220.595a.387.387,0,0,1-.139.32c-.236.153-.487.32-.737.459a29.362,29.362,0,0,0-3.518,2.295,17.512,17.512,0,0,0-3.24,3.254,11.916,11.916,0,0,0-1.516,2.809c-.111.292-.223.584-.348.862a.161.161,0,0,1-.306,0,1.7,1.7,0,0,1-.167-.362,15.706,15.706,0,0,0-4.714-6.439,22.33,22.33,0,0,0-3.616-2.5c-.056-.028-.111-.056-.181-.1-.487-.292-.528-.362-.389-.918.278-1.14.584-2.281.862-3.421.083-.348.153-.7.236-1.043a1.769,1.769,0,0,1,1.085-1.335,15.653,15.653,0,0,1,3.254-.973,20.694,20.694,0,0,1,5.243-.375,18.468,18.468,0,0,1,4.075.668c.348.1.7.181,1.029.292a2.854,2.854,0,0,1,1.933,1.961c.417,1.377.751,2.8,1.071,4.2A1.25,1.25,0,0,1,446.142,220.595Zm-14.977-1.113c1.279.056,2.8-.153,4.3-.125.07,0,.139-.014.195-.014a.6.6,0,0,0,.528-.348,1.459,1.459,0,0,0,.195-.765c0-.751.014-1.516-.014-2.267a5.813,5.813,0,0,0-.125-.987.706.706,0,0,0-.737-.64,2.685,2.685,0,0,0-.473,0l-4.52.125c-.07,0-.139.014-.195.014a1.214,1.214,0,0,0-1.224,1.015c-.222.89-.445,1.766-.667,2.642-.042.167-.07.348-.1.528-.1.584.209.834.681.82C429.663,219.468,430.3,219.482,431.165,219.482Zm10.138,0v.028h2.8a4.3,4.3,0,0,0,.6-.028.411.411,0,0,0,.389-.4,2.248,2.248,0,0,0-.07-.918c-.209-.793-.417-1.585-.626-2.392a3.025,3.025,0,0,0-.167-.5.952.952,0,0,0-.793-.626c-.195-.028-.4-.042-.6-.056-.334-.014-.668,0-1-.042-1.279-.139-2.573-.07-3.866-.083-.487,0-.668.167-.779.654a1.879,1.879,0,0,0-.056.389c-.014.96-.028,1.905-.028,2.865,0,.779.32,1.126,1.14,1.113C439.258,219.468,440.273,219.482,441.3,219.482Zm-2.2,4.1a2.047,2.047,0,0,0-.57-1.6,2.415,2.415,0,0,0-3.018-.542,2.635,2.635,0,0,0-1.224,2.851,2.437,2.437,0,0,0,4.812-.709Z" transform="translate(-367.665 -183.319)" fill="#383e42"/>
    <path id="Path_922" data-name="Path 922" d="M437.918,340.523l.139.139a2.413,2.413,0,0,0,.139.264,1.071,1.071,0,0,1-.807.876,6.881,6.881,0,0,1-1.5.32c-1.057.139-2.114.236-3.185.32-.96.07-1.905.056-2.865.139a33.338,33.338,0,0,1-3.727.083c-1.349-.028-2.7-.139-4.061-.209-.195-.014-.4-.014-.6-.028-1.349-.07-2.7-.195-4.047-.389a2.111,2.111,0,0,1-.987-.389.692.692,0,0,1-.195-1.043,1.074,1.074,0,0,1,1.224-.57c.626.111,1.279.153,1.919.209.779.083,1.544.153,2.322.223.07,0,.139.014.195.014,1.2.014,2.392.181,3.588.153,2.128-.028,4.269.014,6.4-.028.973-.014,1.947-.125,2.92-.209l1.863-.167a2.194,2.194,0,0,1,1.113.153A.5.5,0,0,1,437.918,340.523Z" transform="translate(-358.078 -292.581)" fill="#383e42"/>
    <path id="Path_923" data-name="Path 923" d="M535.58,301.44a1.711,1.711,0,0,1-1.669,1.669,1.655,1.655,0,0,1,0-3.31A1.616,1.616,0,0,1,535.58,301.44Z" transform="translate(-458.147 -257.962)" fill="#383e42"/>
    <path id="Path_924" data-name="Path 924" d="M433.936,299.2a1.59,1.59,0,0,1,1.627,1.641,1.7,1.7,0,0,1-1.613,1.627,1.636,1.636,0,0,1-1.655-1.641A1.574,1.574,0,0,1,433.936,299.2Z" transform="translate(-372.05 -257.447)" fill="#383e42"/>
    <path id="Path_925" data-name="Path 925" d="M431.86,282.3a.908.908,0,0,1,.848.932.933.933,0,0,1-.848.793.862.862,0,1,1,0-1.724Z" transform="translate(-370.933 -242.897)" fill="#383e42"/>
    <path id="Path_926" data-name="Path 926" d="M546.053,283.091a.878.878,0,0,1-.042,1.752.847.847,0,0,1-.82-.918A.833.833,0,0,1,546.053,283.091Z" transform="translate(-469.245 -243.576)" fill="#383e42"/>
    <path id="Path_927" data-name="Path 927" d="M307.2,485.707c.042-.236.083-.5.125-.765.083-.6.167-1.182.264-1.78a.812.812,0,0,1,.111-.306.139.139,0,0,1,.223,0,1.357,1.357,0,0,1,.111.306c.125.793.25,1.585.375,2.364,0,.042.014.083.014.139.014.223.056.459-.167.612a.847.847,0,0,1-.834.056.329.329,0,0,1-.195-.25A1.648,1.648,0,0,1,307.2,485.707Z" transform="translate(-264.352 -415.514)" fill="#383e42"/>
    <path id="Path_928" data-name="Path 928" d="M484.03,465.516a6.2,6.2,0,0,1-.083,1.1.93.93,0,0,1-.834.751,2.107,2.107,0,0,1-.723,0,.4.4,0,0,1-.348-.362,2.561,2.561,0,0,1-.042-.459v-2.267a1.682,1.682,0,0,1,.014-.264c.042-.4.139-.5.542-.515h.334a.956.956,0,0,1,1,.807,2.271,2.271,0,0,1,.111.515C484.016,465.1,484.016,465.364,484.03,465.516Z" transform="translate(-414.843 -398.898)" fill="#383e42"/>
    <path id="Path_929" data-name="Path 929" d="M484.824,279.983c-.028.083-.056.181-.083.25s-.083.153-.195.167a.179.179,0,0,1-.209-.125,14.013,14.013,0,0,1-.779-1.752.4.4,0,0,1,.056-.375.243.243,0,0,1,.389-.042,1.158,1.158,0,0,1,.111.167c.209.445.4.89.6,1.335A2.956,2.956,0,0,1,484.824,279.983Z" transform="translate(-416.166 -239.217)" fill="#383e42"/>
    <path id="Path_930" data-name="Path 930" d="M499.072,277.9a.247.247,0,0,1,.236.139.475.475,0,0,1,.028.389,9.573,9.573,0,0,1-.723,1.7.228.228,0,0,1-.209.139c-.139,0-.195-.111-.223-.209a.746.746,0,0,1-.014-.389,10.081,10.081,0,0,1,.709-1.641C498.933,277.97,499,277.9,499.072,277.9Z" transform="translate(-428.745 -239.109)" fill="#383e42"/>
    <path id="Path_931" data-name="Path 931" d="M491.379,273.4a1.474,1.474,0,0,1,.306.042c.348.07.445.236.306.57a9.1,9.1,0,0,1-.417.821.2.2,0,0,1-.334.042,3.079,3.079,0,0,1-.473-1.071.263.263,0,0,1,.195-.306C491.129,273.442,491.282,273.428,491.379,273.4Z" transform="translate(-422.387 -235.234)" fill="#383e42"/>
    <path id="Path_932" data-name="Path 932" d="M480.836,288.8c.028.014.083,0,.111.028a5.985,5.985,0,0,1,.612,1.321.126.126,0,0,1-.083.153.131.131,0,0,1-.125-.014,1.652,1.652,0,0,1-.6-1.4C480.738,288.856,480.794,288.842,480.836,288.8Z" transform="translate(-413.763 -248.493)" fill="#383e42"/>
    <path id="Path_933" data-name="Path 933" d="M504.821,289.4a1.915,1.915,0,0,1-.57,1.113.219.219,0,0,1-.181.056c-.1-.042-.1-.139-.07-.223q.229-.542.5-1.085c.042-.1.111-.209.25-.153C504.821,289.163,504.807,289.275,504.821,289.4Z" transform="translate(-433.771 -248.745)" fill="#383e42"/>
    <path id="Path_934" data-name="Path 934" d="M493.551,299.8a.285.285,0,0,1-.278-.4.824.824,0,0,1,.167-.278.179.179,0,0,1,.167-.014.51.51,0,0,1,.236.5C493.843,299.718,493.69,299.8,493.551,299.8Z" transform="translate(-424.531 -257.353)" fill="#383e42"/>
  </g>
</svg>
