<svg xmlns="http://www.w3.org/2000/svg" width="95" height="95" viewBox="0 0 95 95">
  <g id="Group_472" data-name="Group 472" transform="translate(-1615 -4786)">
    <rect id="Rectangle_848" data-name="Rectangle 848" width="95" height="95" transform="translate(1615 4786)" fill="#efeeea"/>
    <g id="Group_429" data-name="Group 429" transform="translate(1681 4853.948) rotate(180)">
      <circle id="Ellipse_3" data-name="Ellipse 3" cx="20" cy="20" r="20" fill="#fff"/>
      <path id="Polygon_1" data-name="Polygon 1" d="M6.634,1.5a1,1,0,0,1,1.732,0l5.769,10a1,1,0,0,1-.866,1.5H1.731a1,1,0,0,1-.866-1.5Z" transform="translate(11 28) rotate(-90)" fill="#4f6164"/>
    </g>
  </g>
</svg>
