<svg xmlns="http://www.w3.org/2000/svg" width="31.784" height="31.783" viewBox="0 0 31.784 31.783">
  <g id="Group_15" data-name="Group 15" transform="translate(57.018 -27.478)">
    <path id="Path_476" data-name="Path 476" d="M-41.122,35.321l1.141-1.628q2.018-2.883,4.036-5.766a.94.94,0,0,1,1.5-.13.943.943,0,0,1,.036,1.2q-1.309,1.875-2.622,3.747c-.938,1.341-1.873,2.684-2.818,4.019a.294.294,0,0,0,0,.4q5.322,7.589,10.634,15.185,1.883,2.69,3.767,5.38a.932.932,0,0,1,.1,1.032.921.921,0,0,1-.886.5q-14.893,0-29.787,0a.919.919,0,0,1-.885-.5.949.949,0,0,1,.111-1.051q7.176-10.245,14.351-20.491a.374.374,0,0,0,0-.517q-2.7-3.839-5.39-7.692a.938.938,0,0,1,.476-1.5.935.935,0,0,1,1.05.412q1.512,2.156,3.021,4.315l2.058,2.938C-41.2,35.221-41.168,35.26-41.122,35.321Zm13.145,22.061L-41.127,38.6-54.276,57.382Z" fill="#383e42"/>
    <path id="Path_477" data-name="Path 477" d="M86.051,347.7c-.488.687-.959,1.349-1.43,2.012q-3.359,4.735-6.715,9.472a.945.945,0,0,1-1.036.451.891.891,0,0,1-.712-.749.942.942,0,0,1,.2-.756q2.329-3.281,4.655-6.564l4.189-5.905a.953.953,0,0,1,1.7-.008q4.39,6.189,8.781,12.376a1.075,1.075,0,0,1,.268.848.894.894,0,0,1-.7.757.926.926,0,0,1-1.027-.423q-1.657-2.342-3.319-4.682l-4.733-6.674C86.136,347.814,86.1,347.773,86.051,347.7Z" transform="translate(-127.179 -303.392)" fill="#383e42"/>
  </g>
</svg>
